%YAML 1.1
%TAG !u! tag:unity3d.com,2011:
--- !u!114 &1867240940
MonoBehaviour:
  m_ObjectHideFlags: 0
  m_CorrespondingSourceObject: {fileID: 0}
  m_PrefabInstance: {fileID: 0}
  m_PrefabAsset: {fileID: 0}
  m_GameObject: {fileID: 4561784915838639808}
  m_Enabled: 1
  m_EditorHideFlags: 0
  m_Script: {fileID: 11500000, guid: 824810ef47f26804c91f6766b543a932, type: 3}
  m_Name: 
  m_EditorClassIdentifier: 
--- !u!114 &1867240943
MonoBehaviour:
  m_ObjectHideFlags: 0
  m_CorrespondingSourceObject: {fileID: 0}
  m_PrefabInstance: {fileID: 0}
  m_PrefabAsset: {fileID: 0}
  m_GameObject: {fileID: 4561784915838639808}
  m_Enabled: 1
  m_EditorHideFlags: 0
  m_Script: {fileID: 11500000, guid: 24891f120803b294db4910f86c111155, type: 3}
  m_Name: 
  m_EditorClassIdentifier: 
--- !u!64 &718258148
MeshCollider:
  m_ObjectHideFlags: 0
  m_CorrespondingSourceObject: {fileID: 0}
  m_PrefabInstance: {fileID: 0}
  m_PrefabAsset: {fileID: 0}
  m_GameObject: {fileID: 4561879237847189368}
  m_Material: {fileID: 0}
  m_IsTrigger: 0
  m_Enabled: 1
  serializedVersion: 3
  m_Convex: 0
  m_CookingOptions: 14
  m_Mesh: {fileID: 4300008, guid: fa28ca7b54ed63044b67194a2d60a131, type: 3}
--- !u!114 &718258147
MonoBehaviour:
  m_ObjectHideFlags: 0
  m_CorrespondingSourceObject: {fileID: 0}
  m_PrefabInstance: {fileID: 0}
  m_PrefabAsset: {fileID: 0}
  m_GameObject: {fileID: 4561879237847189368}
  m_Enabled: 1
  m_EditorHideFlags: 0
  m_Script: {fileID: 11500000, guid: 7a8889ebe1f3c639b87f8337c08ffbaa, type: 3}
  m_Name: 
  m_EditorClassIdentifier: 
  meshRenderer: {fileID: 4512821537723030960}
  mycollider: {fileID: 718258148}
--- !u!1001 &4560695966250947140
PrefabInstance:
  m_ObjectHideFlags: 0
  serializedVersion: 2
  m_Modification:
    m_TransformParent: {fileID: 0}
    m_Modifications:
    - target: {fileID: 1248939961339012, guid: 510fa4e9b95fe56458354a444ee1782e, type: 3}
      propertyPath: m_Name
      value: m008_variation
      objectReference: {fileID: 0}
    - target: {fileID: 1248939961339012, guid: 510fa4e9b95fe56458354a444ee1782e, type: 3}
      propertyPath: m_TagString
      value: AgentModels
      objectReference: {fileID: 0}
    - target: {fileID: 4733032602104108, guid: 510fa4e9b95fe56458354a444ee1782e, type: 3}
      propertyPath: m_LocalPosition.x
      value: 2.54
      objectReference: {fileID: 0}
    - target: {fileID: 4733032602104108, guid: 510fa4e9b95fe56458354a444ee1782e, type: 3}
      propertyPath: m_LocalPosition.y
      value: 0
      objectReference: {fileID: 0}
    - target: {fileID: 4733032602104108, guid: 510fa4e9b95fe56458354a444ee1782e, type: 3}
      propertyPath: m_LocalPosition.z
      value: 17.78
      objectReference: {fileID: 0}
    - target: {fileID: 4733032602104108, guid: 510fa4e9b95fe56458354a444ee1782e, type: 3}
      propertyPath: m_LocalRotation.x
      value: 0
      objectReference: {fileID: 0}
    - target: {fileID: 4733032602104108, guid: 510fa4e9b95fe56458354a444ee1782e, type: 3}
      propertyPath: m_LocalRotation.y
      value: 0
      objectReference: {fileID: 0}
    - target: {fileID: 4733032602104108, guid: 510fa4e9b95fe56458354a444ee1782e, type: 3}
      propertyPath: m_LocalRotation.z
      value: 0
      objectReference: {fileID: 0}
    - target: {fileID: 4733032602104108, guid: 510fa4e9b95fe56458354a444ee1782e, type: 3}
      propertyPath: m_LocalRotation.w
      value: 1
      objectReference: {fileID: 0}
    - target: {fileID: 4733032602104108, guid: 510fa4e9b95fe56458354a444ee1782e, type: 3}
      propertyPath: m_RootOrder
      value: 0
      objectReference: {fileID: 0}
    - target: {fileID: 4733032602104108, guid: 510fa4e9b95fe56458354a444ee1782e, type: 3}
      propertyPath: m_LocalEulerAnglesHint.x
      value: 0
      objectReference: {fileID: 0}
    - target: {fileID: 4733032602104108, guid: 510fa4e9b95fe56458354a444ee1782e, type: 3}
      propertyPath: m_LocalEulerAnglesHint.y
      value: 0
      objectReference: {fileID: 0}
    - target: {fileID: 4733032602104108, guid: 510fa4e9b95fe56458354a444ee1782e, type: 3}
      propertyPath: m_LocalEulerAnglesHint.z
      value: 0
      objectReference: {fileID: 0}
    - target: {fileID: 95807612454477630, guid: 510fa4e9b95fe56458354a444ee1782e,
        type: 3}
      propertyPath: m_WarningMessage
      value: "\nBinding warning: Some generic clip(s) animate transforms that are
        already bound by a Humanoid avatar. These transforms can only be changed by
        Humanoid clips.\n\tFrom animation clip 'default_squeleton'\n\tFrom animation
        clip 'default_squeleton'\n\tFrom animation clip 'default_squeleton'\n\tFrom
        animation clip 'default_squeleton'\n\tFrom animation clip 'default_squeleton'\n\tFrom
        animation clip 'default_squeleton'\n\tFrom animation clip 'default_squeleton'\n\tFrom
        animation clip 'default_squeleton'\n\tFrom animation clip 'default_squeleton'\n\tFrom
        animation clip 'default_squeleton'\n\tand more ..."
      objectReference: {fileID: 0}
    - target: {fileID: 95807612454477630, guid: 510fa4e9b95fe56458354a444ee1782e,
        type: 3}
      propertyPath: m_Controller
      value: 
      objectReference: {fileID: 9100000, guid: e37e8b2ec0a63b3459448625bc18fa2c, type: 2}
    m_RemovedComponents:
    - {fileID: 54760361292672820, guid: 510fa4e9b95fe56458354a444ee1782e, type: 3}
    - {fileID: 136148709745043410, guid: 510fa4e9b95fe56458354a444ee1782e, type: 3}
    - {fileID: 114874417625485306, guid: 510fa4e9b95fe56458354a444ee1782e, type: 3}
  m_SourcePrefab: {fileID: 100100000, guid: 510fa4e9b95fe56458354a444ee1782e, type: 3}
--- !u!1 &4561784915838639808 stripped
GameObject:
  m_CorrespondingSourceObject: {fileID: 1248939961339012, guid: 510fa4e9b95fe56458354a444ee1782e,
    type: 3}
  m_PrefabInstance: {fileID: 4560695966250947140}
  m_PrefabAsset: {fileID: 0}
--- !u!1 &4561879237847189368 stripped
GameObject:
  m_CorrespondingSourceObject: {fileID: 1640670744630588, guid: 510fa4e9b95fe56458354a444ee1782e,
    type: 3}
  m_PrefabInstance: {fileID: 4560695966250947140}
  m_PrefabAsset: {fileID: 0}
--- !u!137 &4512821537723030960 stripped
SkinnedMeshRenderer:
  m_CorrespondingSourceObject: {fileID: 137953069752602612, guid: 510fa4e9b95fe56458354a444ee1782e,
    type: 3}
  m_PrefabInstance: {fileID: 4560695966250947140}
  m_PrefabAsset: {fileID: 0}
