[
    {
        "report": "", 
        "odom": "pose 20.000 0.000 270.000 0.000 0.000 0.000", 
        "crowd": "id pose", 
        "clock": "0.5"
    }, 
    {
        "report": "", 
        "odom": "pose 20.000 0.000 270.000 0.000 0.000 0.000", 
        "crowd": "id pose", 
        "clock": "0.6"
    }, 
    {
        "report": "", 
        "odom": "pose 20.000 0.000 270.000 0.000 0.000 0.000", 
        "crowd": "id pose", 
        "clock": "0.7"
    }, 
    {
        "report": "", 
        "odom": "pose 20.000 0.000 270.000 0.000 0.000 0.000", 
        "crowd": "id pose", 
        "clock": "0.8"
    }, 
    {
        "report": "", 
        "odom": "pose 20.000 0.000 270.000 -0.002 0.000 0.000", 
        "crowd": "id pose", 
        "clock": "0.9"
    }, 
    {
        "report": "", 
        "odom": "pose 19.999 0.000 270.000 -0.007 0.000 0.000", 
        "crowd": "id pose", 
        "clock": "1.0"
    }, 
    {
        "report": "", 
        "odom": "pose 19.998 0.000 270.000 -0.014 0.000 0.000", 
        "crowd": "id pose", 
        "clock": "1.1"
    }, 
    {
        "report": "", 
        "odom": "pose 19.995 0.000 270.000 -0.024 0.000 0.000", 
        "crowd": "id pose", 
        "clock": "1.2"
    }, 
    {
        "report": "", 
        "odom": "pose 19.992 0.000 270.000 -0.037 0.000 0.000", 
        "crowd": "id pose", 
        "clock": "1.3"
    }, 
    {
        "report": "", 
        "odom": "pose 19.987 0.000 270.000 -0.051 0.000 0.000", 
        "crowd": "id pose", 
        "clock": "1.4"
    }, 
    {
        "report": "", 
        "odom": "pose 19.980 0.000 270.000 -0.067 0.000 0.000", 
        "crowd": "id pose", 
        "clock": "1.5"
    }, 
    {
        "report": "", 
        "odom": "pose 19.972 0.000 270.000 -0.084 0.000 0.000", 
        "crowd": "id pose", 
        "clock": "1.6"
    }, 
    {
        "report": "", 
        "odom": "pose 19.961 0.000 270.000 -0.102 0.000 0.000", 
        "crowd": "id pose", 
        "clock": "1.7"
    }, 
    {
        "report": "", 
        "odom": "pose 19.949 0.000 270.000 -0.121 0.000 0.000", 
        "crowd": "id pose", 
        "clock": "1.8"
    }, 
    {
        "report": "", 
        "odom": "pose 19.935 0.000 270.000 -0.142 0.000 0.000", 
        "crowd": "id pose", 
        "clock": "1.9"
    }, 
    {
        "report": "", 
        "odom": "pose 19.919 0.000 270.000 -0.162 0.000 0.000", 
        "crowd": "id pose", 
        "clock": "2.0"
    }, 
    {
        "report": "", 
        "odom": "pose 19.900 0.000 270.000 -0.183 0.000 0.000", 
        "crowd": "id pose", 
        "clock": "2.1"
    }, 
    {
        "report": "", 
        "odom": "pose 19.880 0.000 270.000 -0.205 0.000 0.000", 
        "crowd": "id pose", 
        "clock": "2.2"
    }, 
    {
        "report": "", 
        "odom": "pose 19.857 0.000 270.000 -0.227 0.000 0.000", 
        "crowd": "id pose", 
        "clock": "2.3"
    }, 
    {
        "report": "", 
        "odom": "pose 19.832 0.000 270.000 -0.249 0.000 0.000", 
        "crowd": "id pose", 
        "clock": "2.4"
    }, 
    {
        "report": "", 
        "odom": "pose 19.805 0.000 270.000 -0.271 0.000 0.000", 
        "crowd": "id pose", 
        "clock": "2.5"
    }, 
    {
        "report": "", 
        "odom": "pose 19.776 0.000 270.000 -0.293 0.000 0.000", 
        "crowd": "id pose", 
        "clock": "2.6"
    }, 
    {
        "report": "", 
        "odom": "pose 19.744 0.000 270.000 -0.315 0.000 0.000", 
        "crowd": "id pose", 
        "clock": "2.7"
    }, 
    {
        "report": "", 
        "odom": "pose 19.711 0.000 270.000 -0.337 0.000 0.000", 
        "crowd": "id pose", 
        "clock": "2.8"
    }, 
    {
        "report": "", 
        "odom": "pose 19.675 0.000 270.000 -0.358 0.000 0.000", 
        "crowd": "id pose", 
        "clock": "2.9"
    }, 
    {
        "report": "", 
        "odom": "pose 19.637 0.000 270.000 -0.380 0.000 0.000", 
        "crowd": "id pose", 
        "clock": "3.0"
    }, 
    {
        "report": "", 
        "odom": "pose 19.597 0.000 270.000 -0.400 0.000 0.000", 
        "crowd": "id pose", 
        "clock": "3.1"
    }, 
    {
        "report": "", 
        "odom": "pose 19.555 0.000 270.000 -0.421 0.000 0.000", 
        "crowd": "id pose", 
        "clock": "3.2"
    }, 
    {
        "report": "", 
        "odom": "pose 19.511 0.000 270.000 -0.441 0.000 0.000", 
        "crowd": "id pose", 
        "clock": "3.3"
    }, 
    {
        "report": "", 
        "odom": "pose 19.465 0.000 270.000 -0.461 0.000 0.000", 
        "crowd": "id pose", 
        "clock": "3.4"
    }, 
    {
        "report": "", 
        "odom": "pose 19.417 0.000 270.000 -0.481 0.000 0.000", 
        "crowd": "id pose", 
        "clock": "3.5"
    }, 
    {
        "report": "", 
        "odom": "pose 19.367 0.000 270.000 -0.500 0.000 0.000", 
        "crowd": "id pose", 
        "clock": "3.6"
    }, 
    {
        "report": "", 
        "odom": "pose 19.315 0.000 270.000 -0.518 0.000 0.000", 
        "crowd": "id pose", 
        "clock": "3.7"
    }, 
    {
        "report": "", 
        "odom": "pose 19.261 0.000 270.000 -0.536 0.000 0.000", 
        "crowd": "id pose", 
        "clock": "3.8"
    }, 
    {
        "report": "", 
        "odom": "pose 19.206 0.000 270.000 -0.554 0.000 0.000", 
        "crowd": "id pose", 
        "clock": "3.9"
    }, 
    {
        "report": "", 
        "odom": "pose 19.149 0.000 270.000 -0.571 0.000 0.000", 
        "crowd": "id pose", 
        "clock": "4.0"
    }, 
    {
        "report": "", 
        "odom": "pose 19.090 0.000 270.000 -0.588 0.000 0.000", 
        "crowd": "id pose", 
        "clock": "4.1"
    }, 
    {
        "report": "", 
        "odom": "pose 19.029 0.000 270.000 -0.604 0.000 0.000", 
        "crowd": "id pose", 
        "clock": "4.2"
    }, 
    {
        "report": "", 
        "odom": "pose 18.967 0.000 270.000 -0.620 0.000 0.000", 
        "crowd": "id pose", 
        "clock": "4.3"
    }, 
    {
        "report": "", 
        "odom": "pose 18.904 0.000 270.000 -0.635 0.000 0.000", 
        "crowd": "id pose", 
        "clock": "4.4"
    }, 
    {
        "report": "", 
        "odom": "pose 18.839 0.000 270.000 -0.650 0.000 0.000", 
        "crowd": "id pose", 
        "clock": "4.5"
    }, 
    {
        "report": "", 
        "odom": "pose 18.773 0.000 270.000 -0.664 0.000 0.000", 
        "crowd": "id pose", 
        "clock": "4.6"
    }, 
    {
        "report": "", 
        "odom": "pose 18.705 0.000 270.000 -0.678 0.000 0.000", 
        "crowd": "id pose", 
        "clock": "4.7"
    }, 
    {
        "report": "", 
        "odom": "pose 18.636 0.000 270.000 -0.691 0.000 0.000", 
        "crowd": "id pose", 
        "clock": "4.8"
    }, 
    {
        "report": "", 
        "odom": "pose 18.565 0.000 270.000 -0.704 0.000 0.000", 
        "crowd": "id pose", 
        "clock": "4.9"
    }, 
    {
        "report": "", 
        "odom": "pose 18.494 0.000 270.000 -0.716 0.000 0.000", 
        "crowd": "id pose", 
        "clock": "5.0"
    }, 
    {
        "report": "", 
        "odom": "pose 18.421 0.000 270.000 -0.728 0.000 0.000", 
        "crowd": "id pose", 
        "clock": "5.1"
    }, 
    {
        "report": "", 
        "odom": "pose 18.347 0.000 270.000 -0.740 0.000 0.000", 
        "crowd": "id pose", 
        "clock": "5.2"
    }, 
    {
        "report": "", 
        "odom": "pose 18.272 0.000 270.000 -0.751 0.000 0.000", 
        "crowd": "id pose", 
        "clock": "5.3"
    }, 
    {
        "report": "", 
        "odom": "pose 18.196 0.000 270.000 -0.761 0.000 0.000", 
        "crowd": "id pose", 
        "clock": "5.4"
    }, 
    {
        "report": "", 
        "odom": "pose 18.119 0.000 270.000 -0.772 0.000 0.000", 
        "crowd": "id pose", 
        "clock": "5.5"
    }, 
    {
        "report": "", 
        "odom": "pose 18.040 0.000 270.000 -0.782 0.000 0.000", 
        "crowd": "id pose", 
        "clock": "5.6"
    }, 
    {
        "report": "", 
        "odom": "pose 17.961 0.000 270.000 -0.791 0.000 0.000", 
        "crowd": "id pose", 
        "clock": "5.7"
    }, 
    {
        "report": "", 
        "odom": "pose 17.881 0.000 270.000 -0.800 0.000 0.000", 
        "crowd": "id pose", 
        "clock": "5.8"
    }, 
    {
        "report": "", 
        "odom": "pose 17.800 0.000 270.000 -0.809 0.000 0.000", 
        "crowd": "id pose", 
        "clock": "5.9"
    }, 
    {
        "report": "", 
        "odom": "pose 17.719 0.000 270.000 -0.818 0.000 0.000", 
        "crowd": "id pose", 
        "clock": "6.0"
    }, 
    {
        "report": "", 
        "odom": "pose 17.636 0.000 270.000 -0.826 0.000 0.000", 
        "crowd": "id pose", 
        "clock": "6.1"
    }, 
    {
        "report": "", 
        "odom": "pose 17.553 0.000 270.000 -0.833 0.000 0.000", 
        "crowd": "id pose", 
        "clock": "6.2"
    }, 
    {
        "report": "", 
        "odom": "pose 17.469 0.000 270.000 -0.841 0.000 0.000", 
        "crowd": "id pose", 
        "clock": "6.3"
    }, 
    {
        "report": "", 
        "odom": "pose 17.384 0.000 270.000 -0.848 0.000 0.000", 
        "crowd": "id pose", 
        "clock": "6.4"
    }, 
    {
        "report": "", 
        "odom": "pose 17.298 0.000 270.000 -0.855 0.000 0.000", 
        "crowd": "id pose", 
        "clock": "6.5"
    }, 
    {
        "report": "", 
        "odom": "pose 17.212 0.000 270.000 -0.862 0.000 0.000", 
        "crowd": "id pose", 
        "clock": "6.6"
    }, 
    {
        "report": "", 
        "odom": "pose 17.125 0.000 270.000 -0.868 0.000 0.000", 
        "crowd": "id pose", 
        "clock": "6.7"
    }, 
    {
        "report": "", 
        "odom": "pose 17.038 0.000 270.000 -0.874 0.000 0.000", 
        "crowd": "id pose", 
        "clock": "6.8"
    }, 
    {
        "report": "", 
        "odom": "pose 16.950 0.000 270.000 -0.880 0.000 0.000", 
        "crowd": "id pose", 
        "clock": "6.9"
    }, 
    {
        "report": "", 
        "odom": "pose 16.862 0.000 270.000 -0.885 0.000 0.000", 
        "crowd": "id pose", 
        "clock": "7.0"
    }, 
    {
        "report": "", 
        "odom": "pose 16.772 0.000 270.000 -0.891 0.000 0.000", 
        "crowd": "id pose", 
        "clock": "7.1"
    }, 
    {
        "report": "", 
        "odom": "pose 16.683 0.000 270.000 -0.896 0.000 0.000", 
        "crowd": "id pose", 
        "clock": "7.2"
    }, 
    {
        "report": "", 
        "odom": "pose 16.593 0.000 270.000 -0.900 0.000 0.000", 
        "crowd": "id pose", 
        "clock": "7.3"
    }, 
    {
        "report": "", 
        "odom": "pose 16.502 0.000 270.000 -0.905 0.000 0.000", 
        "crowd": "id pose", 
        "clock": "7.4"
    }, 
    {
        "report": "", 
        "odom": "pose 16.411 0.000 270.000 -0.910 0.000 0.000", 
        "crowd": "id pose", 
        "clock": "7.5"
    }, 
    {
        "report": "", 
        "odom": "pose 16.320 0.000 270.000 -0.914 0.000 0.000", 
        "crowd": "id pose", 
        "clock": "7.6"
    }, 
    {
        "report": "", 
        "odom": "pose 16.228 0.000 270.000 -0.918 0.000 0.000", 
        "crowd": "id pose", 
        "clock": "7.7"
    }, 
    {
        "report": "", 
        "odom": "pose 16.136 0.000 270.000 -0.922 0.000 0.000", 
        "crowd": "id pose", 
        "clock": "7.8"
    }, 
    {
        "report": "", 
        "odom": "pose 16.044 0.000 270.000 -0.925 0.000 0.000", 
        "crowd": "id pose", 
        "clock": "7.9"
    }, 
    {
        "report": "", 
        "odom": "pose 15.951 0.000 270.000 -0.929 0.000 0.000", 
        "crowd": "id pose", 
        "clock": "8.0"
    }, 
    {
        "report": "", 
        "odom": "pose 15.857 0.000 270.000 -0.932 0.000 0.000", 
        "crowd": "id pose", 
        "clock": "8.1"
    }, 
    {
        "report": "", 
        "odom": "pose 15.764 0.000 270.000 -0.936 0.000 0.000", 
        "crowd": "id pose", 
        "clock": "8.2"
    }, 
    {
        "report": "", 
        "odom": "pose 15.670 0.000 270.000 -0.939 0.000 0.000", 
        "crowd": "id pose", 
        "clock": "8.3"
    }, 
    {
        "report": "", 
        "odom": "pose 15.576 0.000 270.000 -0.942 0.000 0.000", 
        "crowd": "id pose", 
        "clock": "8.4"
    }, 
    {
        "report": "", 
        "odom": "pose 15.481 0.000 270.000 -0.944 0.000 0.000", 
        "crowd": "id pose", 
        "clock": "8.5"
    }, 
    {
        "report": "", 
        "odom": "pose 15.387 0.000 270.000 -0.947 0.000 0.000", 
        "crowd": "id pose", 
        "clock": "8.6"
    }, 
    {
        "report": "", 
        "odom": "pose 15.292 0.000 270.000 -0.950 0.000 0.000", 
        "crowd": "id pose", 
        "clock": "8.7"
    }, 
    {
        "report": "", 
        "odom": "pose 15.196 0.000 270.000 -0.952 0.000 0.000", 
        "crowd": "id pose", 
        "clock": "8.8"
    }, 
    {
        "report": "", 
        "odom": "pose 15.101 0.000 270.000 -0.954 0.000 0.000", 
        "crowd": "id pose", 
        "clock": "8.9"
    }, 
    {
        "report": "", 
        "odom": "pose 15.005 0.000 270.000 -0.957 0.000 0.000", 
        "crowd": "id pose", 
        "clock": "9.0"
    }, 
    {
        "report": "", 
        "odom": "pose 14.909 0.000 270.000 -0.959 0.000 0.000", 
        "crowd": "id pose", 
        "clock": "9.1"
    }, 
    {
        "report": "", 
        "odom": "pose 14.813 0.000 270.000 -0.961 0.000 0.000", 
        "crowd": "id pose", 
        "clock": "9.2"
    }, 
    {
        "report": "", 
        "odom": "pose 14.717 0.000 270.000 -0.963 0.000 0.000", 
        "crowd": "id pose", 
        "clock": "9.3"
    }, 
    {
        "report": "", 
        "odom": "pose 14.621 0.000 270.000 -0.964 0.000 0.000", 
        "crowd": "id pose", 
        "clock": "9.4"
    }, 
    {
        "report": "", 
        "odom": "pose 14.524 0.000 270.000 -0.966 0.000 0.000", 
        "crowd": "id pose", 
        "clock": "9.5"
    }, 
    {
        "report": "", 
        "odom": "pose 14.427 0.000 270.000 -0.968 0.000 0.000", 
        "crowd": "id pose", 
        "clock": "9.6"
    }, 
    {
        "report": "", 
        "odom": "pose 14.330 0.000 270.000 -0.969 0.000 0.000", 
        "crowd": "id pose", 
        "clock": "9.7"
    }, 
    {
        "report": "", 
        "odom": "pose 14.233 0.000 270.000 -0.971 0.000 0.000", 
        "crowd": "id pose", 
        "clock": "9.8"
    }, 
    {
        "report": "", 
        "odom": "pose 14.136 0.000 270.000 -0.972 0.000 0.000", 
        "crowd": "id pose", 
        "clock": "9.9"
    }, 
    {
        "report": "", 
        "odom": "pose 14.039 0.000 270.000 -0.974 0.000 0.000", 
        "crowd": "id pose", 
        "clock": "10.0"
    }, 
    {
        "report": "", 
        "odom": "pose 13.941 0.000 270.000 -0.975 0.000 0.000", 
        "crowd": "id pose", 
        "clock": "10.1"
    }, 
    {
        "report": "", 
        "odom": "pose 13.844 0.000 270.000 -0.976 0.000 0.000", 
        "crowd": "id pose", 
        "clock": "10.2"
    }, 
    {
        "report": "", 
        "odom": "pose 13.746 0.000 270.000 -0.977 0.000 0.000", 
        "crowd": "id pose", 
        "clock": "10.3"
    }, 
    {
        "report": "", 
        "odom": "pose 13.648 0.000 270.000 -0.979 0.000 0.000", 
        "crowd": "id pose", 
        "clock": "10.4"
    }, 
    {
        "report": "", 
        "odom": "pose 13.550 0.000 270.000 -0.980 0.000 0.000", 
        "crowd": "id pose", 
        "clock": "10.5"
    }, 
    {
        "report": "", 
        "odom": "pose 13.452 0.000 270.000 -0.981 0.000 0.000", 
        "crowd": "id pose", 
        "clock": "10.6"
    }, 
    {
        "report": "", 
        "odom": "pose 13.354 0.000 270.000 -0.982 0.000 0.000", 
        "crowd": "id pose", 
        "clock": "10.7"
    }, 
    {
        "report": "", 
        "odom": "pose 13.255 0.000 270.000 -0.983 0.000 0.000", 
        "crowd": "id pose", 
        "clock": "10.8"
    }, 
    {
        "report": "", 
        "odom": "pose 13.157 0.000 270.000 -0.983 0.000 0.000", 
        "crowd": "id pose", 
        "clock": "10.9"
    }, 
    {
        "report": "", 
        "odom": "pose 13.059 0.000 270.000 -0.984 0.000 0.000", 
        "crowd": "id pose", 
        "clock": "11.0"
    }, 
    {
        "report": "", 
        "odom": "pose 12.960 0.000 270.000 -0.985 0.000 0.000", 
        "crowd": "id pose", 
        "clock": "11.1"
    }, 
    {
        "report": "", 
        "odom": "pose 12.862 0.000 270.000 -0.986 0.000 0.000", 
        "crowd": "id pose", 
        "clock": "11.2"
    }, 
    {
        "report": "", 
        "odom": "pose 12.763 0.000 270.000 -0.987 0.000 0.000", 
        "crowd": "id pose", 
        "clock": "11.3"
    }, 
    {
        "report": "", 
        "odom": "pose 12.664 0.000 270.000 -0.987 0.000 0.000", 
        "crowd": "id pose", 
        "clock": "11.4"
    }, 
    {
        "report": "", 
        "odom": "pose 12.565 0.000 270.000 -0.988 0.000 0.000", 
        "crowd": "id pose", 
        "clock": "11.5"
    }, 
    {
        "report": "", 
        "odom": "pose 12.467 0.000 270.000 -0.988 0.000 0.000", 
        "crowd": "id pose", 
        "clock": "11.6"
    }, 
    {
        "report": "", 
        "odom": "pose 12.368 0.000 270.000 -0.989 0.000 0.000", 
        "crowd": "id pose", 
        "clock": "11.7"
    }, 
    {
        "report": "", 
        "odom": "pose 12.269 0.000 270.000 -0.990 0.000 0.000", 
        "crowd": "id pose", 
        "clock": "11.8"
    }, 
    {
        "report": "", 
        "odom": "pose 12.170 0.000 270.000 -0.990 0.000 0.000", 
        "crowd": "id pose", 
        "clock": "11.9"
    }, 
    {
        "report": "", 
        "odom": "pose 12.071 0.000 270.000 -0.991 0.000 0.000", 
        "crowd": "id pose", 
        "clock": "12.0"
    }, 
    {
        "report": "", 
        "odom": "pose 11.972 0.000 270.000 -0.991 0.000 0.000", 
        "crowd": "id pose", 
        "clock": "12.1"
    }, 
    {
        "report": "", 
        "odom": "pose 11.872 0.000 270.000 -0.992 0.000 0.000", 
        "crowd": "id pose", 
        "clock": "12.2"
    }, 
    {
        "report": "", 
        "odom": "pose 11.773 0.000 270.000 -0.992 0.000 0.000", 
        "crowd": "id pose", 
        "clock": "12.3"
    }, 
    {
        "report": "", 
        "odom": "pose 11.674 0.000 270.000 -0.992 0.000 0.000", 
        "crowd": "id pose", 
        "clock": "12.4"
    }, 
    {
        "report": "", 
        "odom": "pose 11.575 0.000 270.000 -0.993 0.000 0.000", 
        "crowd": "id pose", 
        "clock": "12.5"
    }, 
    {
        "report": "", 
        "odom": "pose 11.475 0.000 270.000 -0.993 0.000 0.000", 
        "crowd": "id pose", 
        "clock": "12.6"
    }, 
    {
        "report": "", 
        "odom": "pose 11.376 0.000 270.000 -0.994 0.000 0.000", 
        "crowd": "id pose", 
        "clock": "12.7"
    }, 
    {
        "report": "", 
        "odom": "pose 11.277 0.000 270.000 -0.994 0.000 0.000", 
        "crowd": "id pose", 
        "clock": "12.8"
    }, 
    {
        "report": "", 
        "odom": "pose 11.177 0.000 270.000 -0.994 0.000 0.000", 
        "crowd": "id pose", 
        "clock": "12.9"
    }, 
    {
        "report": "", 
        "odom": "pose 11.078 0.000 270.000 -0.994 0.000 0.000", 
        "crowd": "id pose", 
        "clock": "13.0"
    }, 
    {
        "report": "", 
        "odom": "pose 10.978 0.000 270.000 -0.995 0.000 0.000", 
        "crowd": "id pose", 
        "clock": "13.1"
    }, 
    {
        "report": "", 
        "odom": "pose 10.879 0.000 270.000 -0.995 0.000 0.000", 
        "crowd": "id pose", 
        "clock": "13.2"
    }, 
    {
        "report": "", 
        "odom": "pose 10.779 0.000 270.000 -0.995 0.000 0.000", 
        "crowd": "id pose", 
        "clock": "13.3"
    }, 
    {
        "report": "", 
        "odom": "pose 10.680 0.000 270.000 -0.996 0.000 0.000", 
        "crowd": "id pose", 
        "clock": "13.4"
    }, 
    {
        "report": "", 
        "odom": "pose 10.580 0.000 270.000 -0.996 0.000 0.000", 
        "crowd": "id pose", 
        "clock": "13.5"
    }, 
    {
        "report": "", 
        "odom": "pose 10.480 0.000 270.000 -0.996 0.000 0.000", 
        "crowd": "id pose", 
        "clock": "13.6"
    }, 
    {
        "report": "", 
        "odom": "pose 10.381 0.000 270.000 -0.996 0.000 0.000", 
        "crowd": "id pose", 
        "clock": "13.7"
    }, 
    {
        "report": "", 
        "odom": "pose 10.281 0.000 270.000 -0.996 0.000 0.000", 
        "crowd": "id pose", 
        "clock": "13.8"
    }, 
    {
        "report": "", 
        "odom": "pose 10.182 0.000 270.000 -0.997 0.000 0.000", 
        "crowd": "id pose", 
        "clock": "13.9"
    }, 
    {
        "report": "", 
        "odom": "pose 10.082 0.000 270.000 -0.997 0.000 0.000", 
        "crowd": "id pose", 
        "clock": "14.0"
    }, 
    {
        "report": "", 
        "odom": "pose 9.982 0.000 270.000 -0.997 0.000 0.000", 
        "crowd": "id pose", 
        "clock": "14.1"
    }, 
    {
        "report": "", 
        "odom": "pose 9.882 0.000 270.000 -0.997 0.000 0.000", 
        "crowd": "id pose", 
        "clock": "14.2"
    }, 
    {
        "report": "", 
        "odom": "pose 9.783 0.000 270.000 -0.997 0.000 0.000", 
        "crowd": "id pose", 
        "clock": "14.3"
    }, 
    {
        "report": "", 
        "odom": "pose 9.683 0.000 270.000 -0.997 0.000 0.000", 
        "crowd": "id pose", 
        "clock": "14.4"
    }, 
    {
        "report": "", 
        "odom": "pose 9.583 0.000 270.000 -0.998 0.000 0.000", 
        "crowd": "id pose", 
        "clock": "14.5"
    }, 
    {
        "report": "", 
        "odom": "pose 9.483 0.000 270.000 -0.998 0.000 0.000", 
        "crowd": "id pose", 
        "clock": "14.6"
    }, 
    {
        "report": "", 
        "odom": "pose 9.384 0.000 270.000 -0.998 0.000 0.000", 
        "crowd": "id pose", 
        "clock": "14.7"
    }, 
    {
        "report": "", 
        "odom": "pose 9.284 0.000 270.000 -0.998 0.000 0.000", 
        "crowd": "id pose", 
        "clock": "14.8"
    }, 
    {
        "report": "", 
        "odom": "pose 9.184 0.000 270.000 -0.998 0.000 0.000", 
        "crowd": "id pose", 
        "clock": "14.9"
    }, 
    {
        "report": "", 
        "odom": "pose 9.084 0.000 270.000 -0.998 0.000 0.000", 
        "crowd": "id pose", 
        "clock": "15.0"
    }, 
    {
        "report": "", 
        "odom": "pose 8.984 0.000 270.000 -0.998 0.000 0.000", 
        "crowd": "id pose", 
        "clock": "15.1"
    }, 
    {
        "report": "", 
        "odom": "pose 8.885 0.000 270.000 -0.998 0.000 0.000", 
        "crowd": "id pose", 
        "clock": "15.2"
    }, 
    {
        "report": "", 
        "odom": "pose 8.785 0.000 270.000 -0.998 0.000 0.000", 
        "crowd": "id pose", 
        "clock": "15.3"
    }, 
    {
        "report": "", 
        "odom": "pose 8.685 0.000 270.000 -0.998 0.000 0.000", 
        "crowd": "id pose", 
        "clock": "15.4"
    }, 
    {
        "report": "", 
        "odom": "pose 8.585 0.000 270.000 -0.999 0.000 0.000", 
        "crowd": "id pose", 
        "clock": "15.5"
    }, 
    {
        "report": "", 
        "odom": "pose 8.485 0.000 270.000 -0.999 0.000 0.000", 
        "crowd": "id pose", 
        "clock": "15.6"
    }, 
    {
        "report": "", 
        "odom": "pose 8.385 0.000 270.000 -0.999 0.000 0.000", 
        "crowd": "id pose", 
        "clock": "15.7"
    }, 
    {
        "report": "", 
        "odom": "pose 8.286 0.000 270.000 -0.999 0.000 0.000", 
        "crowd": "id pose", 
        "clock": "15.8"
    }, 
    {
        "report": "", 
        "odom": "pose 8.186 0.000 270.000 -0.999 0.000 0.000", 
        "crowd": "id pose", 
        "clock": "15.9"
    }, 
    {
        "report": "", 
        "odom": "pose 8.086 0.000 270.000 -0.999 0.000 0.000", 
        "crowd": "id pose", 
        "clock": "16.0"
    }, 
    {
        "report": "", 
        "odom": "pose 7.986 0.000 270.000 -0.999 0.000 0.000", 
        "crowd": "id pose", 
        "clock": "16.1"
    }, 
    {
        "report": "", 
        "odom": "pose 7.886 0.000 270.000 -0.999 0.000 0.000", 
        "crowd": "id pose", 
        "clock": "16.2"
    }, 
    {
        "report": "", 
        "odom": "pose 7.786 0.000 270.000 -0.999 0.000 0.000", 
        "crowd": "id pose", 
        "clock": "16.3"
    }, 
    {
        "report": "", 
        "odom": "pose 7.686 0.000 270.000 -0.999 0.000 0.000", 
        "crowd": "id pose", 
        "clock": "16.4"
    }, 
    {
        "report": "", 
        "odom": "pose 7.586 0.000 270.000 -0.999 0.000 0.000", 
        "crowd": "id pose", 
        "clock": "16.5"
    }, 
    {
        "report": "", 
        "odom": "pose 7.486 0.000 270.000 -0.999 0.000 0.000", 
        "crowd": "id pose", 
        "clock": "16.6"
    }, 
    {
        "report": "", 
        "odom": "pose 7.386 0.000 270.000 -0.999 0.000 0.000", 
        "crowd": "id pose", 
        "clock": "16.7"
    }, 
    {
        "report": "", 
        "odom": "pose 7.286 0.000 270.000 -0.999 0.000 0.000", 
        "crowd": "id pose", 
        "clock": "16.8"
    }, 
    {
        "report": "", 
        "odom": "pose 7.186 0.000 270.000 -0.999 0.000 0.000", 
        "crowd": "id pose", 
        "clock": "16.9"
    }, 
    {
        "report": "", 
        "odom": "pose 7.087 0.000 270.000 -0.999 0.000 0.000", 
        "crowd": "id pose", 
        "clock": "17.0"
    }, 
    {
        "report": "", 
        "odom": "pose 6.987 0.000 270.000 -0.999 0.000 0.000", 
        "crowd": "id pose", 
        "clock": "17.1"
    }, 
    {
        "report": "", 
        "odom": "pose 6.887 0.000 270.000 -0.999 0.000 0.000", 
        "crowd": "id pose", 
        "clock": "17.2"
    }, 
    {
        "report": "", 
        "odom": "pose 6.787 0.000 270.000 -0.999 0.000 0.000", 
        "crowd": "id pose", 
        "clock": "17.3"
    }, 
    {
        "report": "", 
        "odom": "pose 6.687 0.000 270.000 -1.000 0.000 0.000", 
        "crowd": "id pose", 
        "clock": "17.4"
    }, 
    {
        "report": "", 
        "odom": "pose 6.587 0.000 270.000 -1.000 0.000 0.000", 
        "crowd": "id pose", 
        "clock": "17.5"
    }, 
    {
        "report": "", 
        "odom": "pose 6.487 0.000 270.000 -1.000 0.000 0.000", 
        "crowd": "id pose", 
        "clock": "17.6"
    }, 
    {
        "report": "", 
        "odom": "pose 6.387 0.000 270.000 -1.000 0.000 0.000", 
        "crowd": "id pose", 
        "clock": "17.7"
    }, 
    {
        "report": "", 
        "odom": "pose 6.287 0.000 270.000 -1.000 0.000 0.000", 
        "crowd": "id pose", 
        "clock": "17.8"
    }, 
    {
        "report": "", 
        "odom": "pose 6.187 0.000 270.000 -1.000 0.000 0.000", 
        "crowd": "id pose", 
        "clock": "17.9"
    }, 
    {
        "report": "", 
        "odom": "pose 6.087 0.000 270.000 -1.000 0.000 0.000", 
        "crowd": "id pose", 
        "clock": "18.0"
    }, 
    {
        "report": "", 
        "odom": "pose 5.987 0.000 270.000 -1.000 0.000 0.000", 
        "crowd": "id pose", 
        "clock": "18.1"
    }, 
    {
        "report": "", 
        "odom": "pose 5.887 0.000 270.000 -1.000 0.000 0.000", 
        "crowd": "id pose", 
        "clock": "18.2"
    }, 
    {
        "report": "", 
        "odom": "pose 5.787 0.000 270.000 -1.000 0.000 0.000", 
        "crowd": "id pose", 
        "clock": "18.3"
    }, 
    {
        "report": "", 
        "odom": "pose 5.687 0.000 270.000 -1.000 0.000 0.000", 
        "crowd": "id pose", 
        "clock": "18.4"
    }, 
    {
        "report": "", 
        "odom": "pose 5.587 0.000 270.000 -1.000 0.000 0.000", 
        "crowd": "id pose", 
        "clock": "18.5"
    }, 
    {
        "report": "", 
        "odom": "pose 5.487 0.000 270.000 -1.000 0.000 0.000", 
        "crowd": "id pose", 
        "clock": "18.6"
    }, 
    {
        "report": "", 
        "odom": "pose 5.387 0.000 270.000 -1.000 0.000 0.000", 
        "crowd": "id pose", 
        "clock": "18.7"
    }, 
    {
        "report": "", 
        "odom": "pose 5.287 0.000 270.000 -1.000 0.000 0.000", 
        "crowd": "id pose", 
        "clock": "18.8"
    }, 
    {
        "report": "", 
        "odom": "pose 5.187 0.000 270.000 -1.000 0.000 0.000", 
        "crowd": "id pose", 
        "clock": "18.9"
    }, 
    {
        "report": "", 
        "odom": "pose 5.087 0.000 270.000 -1.000 0.000 0.000", 
        "crowd": "id pose", 
        "clock": "19.0"
    }, 
    {
        "report": "", 
        "odom": "pose 4.987 0.000 270.000 -1.000 0.000 0.000", 
        "crowd": "id pose", 
        "clock": "19.1"
    }, 
    {
        "report": "", 
        "odom": "pose 4.887 0.000 270.000 -1.000 0.000 0.000", 
        "crowd": "id pose", 
        "clock": "19.2"
    }, 
    {
        "report": "", 
        "odom": "pose 4.787 0.000 270.000 -1.000 0.000 0.000", 
        "crowd": "id pose", 
        "clock": "19.3"
    }, 
    {
        "report": "", 
        "odom": "pose 4.687 0.000 270.000 -1.000 0.000 0.000", 
        "crowd": "id pose", 
        "clock": "19.4"
    }, 
    {
        "report": "", 
        "odom": "pose 4.587 0.000 270.000 -1.000 0.000 0.000", 
        "crowd": "id pose", 
        "clock": "19.5"
    }, 
    {
        "report": "", 
        "odom": "pose 4.487 0.000 270.000 -1.000 0.000 0.000", 
        "crowd": "id pose", 
        "clock": "19.6"
    }, 
    {
        "report": "", 
        "odom": "pose 4.387 0.000 270.000 -1.000 0.000 0.000", 
        "crowd": "id pose", 
        "clock": "19.7"
    }, 
    {
        "report": "", 
        "odom": "pose 4.287 0.000 270.000 -1.000 0.000 0.000", 
        "crowd": "id pose", 
        "clock": "19.8"
    }, 
    {
        "report": "", 
        "odom": "pose 4.187 0.000 270.000 -1.000 0.000 0.000", 
        "crowd": "id pose", 
        "clock": "19.9"
    }, 
    {
        "report": "", 
        "odom": "pose 4.087 0.000 270.000 -1.000 0.000 0.000", 
        "crowd": "id pose", 
        "clock": "20.0"
    }, 
    {
        "report": "", 
        "odom": "pose 3.987 0.000 270.000 -1.000 0.000 0.000", 
        "crowd": "id pose", 
        "clock": "20.1"
    }, 
    {
        "report": "", 
        "odom": "pose 3.887 0.000 270.000 -1.000 0.000 0.000", 
        "crowd": "id pose", 
        "clock": "20.2"
    }, 
    {
        "report": "", 
        "odom": "pose 3.787 0.000 270.000 -1.000 0.000 0.000", 
        "crowd": "id pose", 
        "clock": "20.3"
    }, 
    {
        "report": "", 
        "odom": "pose 3.687 0.000 270.000 -1.000 0.000 0.000", 
        "crowd": "id pose", 
        "clock": "20.4"
    }, 
    {
        "report": "", 
        "odom": "pose 3.587 0.000 270.000 -1.000 0.000 0.000", 
        "crowd": "id pose", 
        "clock": "20.5"
    }, 
    {
        "report": "", 
        "odom": "pose 3.487 0.000 270.000 -1.000 0.000 0.000", 
        "crowd": "id pose", 
        "clock": "20.6"
    }, 
    {
        "report": "", 
        "odom": "pose 3.387 0.000 270.000 -1.000 0.000 0.000", 
        "crowd": "id pose", 
        "clock": "20.7"
    }, 
    {
        "report": "", 
        "odom": "pose 3.287 0.000 270.000 -1.000 0.000 0.000", 
        "crowd": "id pose", 
        "clock": "20.8"
    }, 
    {
        "report": "", 
        "odom": "pose 3.187 0.000 270.000 -1.000 0.000 0.000", 
        "crowd": "id pose", 
        "clock": "20.9"
    }, 
    {
        "report": "", 
        "odom": "pose 3.087 0.000 270.000 -1.000 0.000 0.000", 
        "crowd": "id pose", 
        "clock": "21.0"
    }, 
    {
        "report": "", 
        "odom": "pose 2.987 0.000 270.000 -1.000 0.000 0.000", 
        "crowd": "id pose", 
        "clock": "21.1"
    }, 
    {
        "report": "", 
        "odom": "pose 2.887 0.000 270.000 -1.000 0.000 0.000", 
        "crowd": "id pose", 
        "clock": "21.2"
    }, 
    {
        "report": "", 
        "odom": "pose 2.787 0.000 270.000 -1.000 0.000 0.000", 
        "crowd": "id pose", 
        "clock": "21.3"
    }, 
    {
        "report": "", 
        "odom": "pose 2.687 0.000 270.000 -1.000 0.000 0.000", 
        "crowd": "id pose", 
        "clock": "21.4"
    }, 
    {
        "report": "", 
        "odom": "pose 2.587 0.000 270.000 -1.000 0.000 0.000", 
        "crowd": "id pose", 
        "clock": "21.5"
    }, 
    {
        "report": "", 
        "odom": "pose 2.487 0.000 270.000 -1.000 0.000 0.000", 
        "crowd": "id pose", 
        "clock": "21.6"
    }, 
    {
        "report": "", 
        "odom": "pose 2.387 0.000 270.000 -1.000 0.000 0.000", 
        "crowd": "id pose", 
        "clock": "21.7"
    }, 
    {
        "report": "", 
        "odom": "pose 2.287 0.000 270.000 -1.000 0.000 0.000", 
        "crowd": "id pose", 
        "clock": "21.8"
    }, 
    {
        "report": "", 
        "odom": "pose 2.187 0.000 270.000 -1.000 0.000 0.000", 
        "crowd": "id pose", 
        "clock": "21.9"
    }, 
    {
        "report": "", 
        "odom": "pose 2.087 0.000 270.000 -1.000 0.000 0.000", 
        "crowd": "id pose", 
        "clock": "22.0"
    }, 
    {
        "report": "", 
        "odom": "pose 1.987 0.000 270.000 -1.000 0.000 0.000", 
        "crowd": "id pose", 
        "clock": "22.1"
    }, 
    {
        "report": "", 
        "odom": "pose 1.887 0.000 270.000 -1.000 0.000 0.000", 
        "crowd": "id pose", 
        "clock": "22.2"
    }, 
    {
        "report": "", 
        "odom": "pose 1.787 0.000 270.000 -1.000 0.000 0.000", 
        "crowd": "id pose", 
        "clock": "22.3"
    }, 
    {
        "report": "", 
        "odom": "pose 1.687 0.000 270.000 -1.000 0.000 0.000", 
        "crowd": "id pose", 
        "clock": "22.4"
    }, 
    {
        "report": "", 
        "odom": "pose 1.587 0.000 270.000 -1.000 0.000 0.000", 
        "crowd": "id pose", 
        "clock": "22.5"
    }, 
    {
        "report": "", 
        "odom": "pose 1.487 0.000 270.000 -1.000 0.000 0.000", 
        "crowd": "id pose", 
        "clock": "22.6"
    }, 
    {
        "report": "", 
        "odom": "pose 1.387 0.000 270.000 -1.000 0.000 0.000", 
        "crowd": "id pose", 
        "clock": "22.7"
    }, 
    {
        "report": "", 
        "odom": "pose 1.287 0.000 270.000 -1.000 0.000 0.000", 
        "crowd": "id pose", 
        "clock": "22.8"
    }, 
    {
        "report": "", 
        "odom": "pose 1.187 0.000 270.000 -1.000 0.000 0.000", 
        "crowd": "id pose", 
        "clock": "22.9"
    }, 
    {
        "report": "", 
        "odom": "pose 1.087 0.000 270.000 -1.000 0.000 0.000", 
        "crowd": "id pose", 
        "clock": "23.0"
    }, 
    {
        "report": "", 
        "odom": "pose 0.987 0.000 270.000 -1.000 0.000 0.000", 
        "crowd": "id pose", 
        "clock": "23.1"
    }, 
    {
        "report": "", 
        "odom": "pose 0.887 0.000 270.000 -1.000 0.000 0.000", 
        "crowd": "id pose", 
        "clock": "23.2"
    }, 
    {
        "report": "", 
        "odom": "pose 0.787 0.000 270.000 -1.000 0.000 0.000", 
        "crowd": "id pose", 
        "clock": "23.3"
    }, 
    {
        "report": "", 
        "odom": "pose 0.687 0.000 270.000 -1.000 0.000 0.000", 
        "crowd": "id pose", 
        "clock": "23.4"
    }, 
    {
        "report": "", 
        "odom": "pose 0.587 0.000 270.000 -1.000 0.000 0.000", 
        "crowd": "id pose", 
        "clock": "23.5"
    }, 
    {
        "report": "", 
        "odom": "pose 0.487 0.000 270.000 -1.000 0.000 0.000", 
        "crowd": "id pose", 
        "clock": "23.6"
    }, 
    {
        "report": "", 
        "odom": "pose 0.387 0.000 270.000 -1.000 0.000 0.000", 
        "crowd": "id pose", 
        "clock": "23.7"
    }, 
    {
        "report": "", 
        "odom": "pose 0.287 0.000 270.000 -1.000 0.000 0.000", 
        "crowd": "id pose", 
        "clock": "23.8"
    }, 
    {
        "report": "", 
        "odom": "pose 0.187 0.000 270.000 -1.000 0.000 0.000", 
        "crowd": "id pose", 
        "clock": "23.9"
    }, 
    {
        "report": "", 
        "odom": "pose 0.087 0.000 270.000 -1.000 0.000 0.000", 
        "crowd": "id pose", 
        "clock": "24.0"
    }, 
    {
        "report": "", 
        "odom": "pose -0.013 0.000 270.000 -1.000 0.000 0.000", 
        "crowd": "id pose", 
        "clock": "24.1"
    }, 
    {
        "report": "", 
        "odom": "pose -0.113 0.000 270.000 -1.000 0.000 0.000", 
        "crowd": "id pose", 
        "clock": "24.2"
    }, 
    {
        "report": "", 
        "odom": "pose -0.213 0.000 270.000 -1.000 0.000 0.000", 
        "crowd": "id pose", 
        "clock": "24.3"
    }, 
    {
        "report": "", 
        "odom": "pose -0.313 0.000 270.000 -1.000 0.000 0.000", 
        "crowd": "id pose", 
        "clock": "24.4"
    }, 
    {
        "report": "", 
        "odom": "pose -0.413 0.000 270.000 -1.000 0.000 0.000", 
        "crowd": "id pose", 
        "clock": "24.5"
    }, 
    {
        "report": "", 
        "odom": "pose -0.513 0.000 270.000 -1.000 0.000 0.000", 
        "crowd": "id pose", 
        "clock": "24.6"
    }, 
    {
        "report": "", 
        "odom": "pose -0.613 0.000 270.000 -1.000 0.000 0.000", 
        "crowd": "id pose", 
        "clock": "24.7"
    }, 
    {
        "report": "", 
        "odom": "pose -0.713 0.000 270.000 -1.000 0.000 0.000", 
        "crowd": "id pose", 
        "clock": "24.8"
    }, 
    {
        "report": "", 
        "odom": "pose -0.813 0.000 270.000 -1.000 0.000 0.000", 
        "crowd": "id pose", 
        "clock": "24.9"
    }, 
    {
        "report": "", 
        "odom": "pose -0.913 0.000 270.000 -1.000 0.000 0.000", 
        "crowd": "id pose", 
        "clock": "25.0"
    }, 
    {
        "report": "", 
        "odom": "pose -1.013 0.000 270.000 -1.000 0.000 0.000", 
        "crowd": "id pose", 
        "clock": "25.1"
    }, 
    {
        "report": "", 
        "odom": "pose -1.113 0.000 270.000 -1.000 0.000 0.000", 
        "crowd": "id pose", 
        "clock": "25.2"
    }, 
    {
        "report": "", 
        "odom": "pose -1.213 0.000 270.000 -1.000 0.000 0.000", 
        "crowd": "id pose", 
        "clock": "25.3"
    }, 
    {
        "report": "", 
        "odom": "pose -1.313 0.000 270.000 -1.000 0.000 0.000", 
        "crowd": "id pose", 
        "clock": "25.4"
    }, 
    {
        "report": "", 
        "odom": "pose -1.413 0.000 270.000 -1.000 0.000 0.000", 
        "crowd": "id pose", 
        "clock": "25.5"
    }, 
    {
        "report": "", 
        "odom": "pose -1.513 0.000 270.000 -1.000 0.000 0.000", 
        "crowd": "id pose", 
        "clock": "25.6"
    }, 
    {
        "report": "", 
        "odom": "pose -1.613 0.000 270.000 -1.000 0.000 0.000", 
        "crowd": "id pose", 
        "clock": "25.7"
    }, 
    {
        "report": "", 
        "odom": "pose -1.713 0.000 270.000 -1.000 0.000 0.000", 
        "crowd": "id pose", 
        "clock": "25.8"
    }, 
    {
        "report": "", 
        "odom": "pose -1.813 0.000 270.000 -1.000 0.000 0.000", 
        "crowd": "id pose", 
        "clock": "25.9"
    }, 
    {
        "report": "", 
        "odom": "pose -1.913 0.000 270.000 -1.000 0.000 0.000", 
        "crowd": "id pose", 
        "clock": "26.0"
    }, 
    {
        "report": "", 
        "odom": "pose -2.013 0.000 270.000 -1.000 0.000 0.000", 
        "crowd": "id pose", 
        "clock": "26.1"
    }, 
    {
        "report": "", 
        "odom": "pose -2.113 0.000 270.000 -1.000 0.000 0.000", 
        "crowd": "id pose", 
        "clock": "26.2"
    }, 
    {
        "report": "", 
        "odom": "pose -2.213 0.000 270.000 -1.000 0.000 0.000", 
        "crowd": "id pose", 
        "clock": "26.3"
    }, 
    {
        "report": "", 
        "odom": "pose -2.313 0.000 270.000 -1.000 0.000 0.000", 
        "crowd": "id pose", 
        "clock": "26.4"
    }, 
    {
        "report": "", 
        "odom": "pose -2.413 0.000 270.000 -1.000 0.000 0.000", 
        "crowd": "id pose", 
        "clock": "26.5"
    }, 
    {
        "report": "", 
        "odom": "pose -2.513 0.000 270.000 -1.000 0.000 0.000", 
        "crowd": "id pose", 
        "clock": "26.6"
    }, 
    {
        "report": "", 
        "odom": "pose -2.613 0.000 270.000 -1.000 0.000 0.000", 
        "crowd": "id pose", 
        "clock": "26.7"
    }, 
    {
        "report": "", 
        "odom": "pose -2.713 0.000 270.000 -1.000 0.000 0.000", 
        "crowd": "id pose", 
        "clock": "26.8"
    }, 
    {
        "report": "", 
        "odom": "pose -2.813 0.000 270.000 -1.000 0.000 0.000", 
        "crowd": "id pose", 
        "clock": "26.9"
    }, 
    {
        "report": "", 
        "odom": "pose -2.913 0.000 270.000 -1.000 0.000 0.000", 
        "crowd": "id pose", 
        "clock": "27.0"
    }, 
    {
        "report": "", 
        "odom": "pose -3.013 0.000 270.000 -1.000 0.000 0.000", 
        "crowd": "id pose", 
        "clock": "27.1"
    }, 
    {
        "report": "", 
        "odom": "pose -3.113 0.000 270.000 -1.000 0.000 0.000", 
        "crowd": "id pose", 
        "clock": "27.2"
    }, 
    {
        "report": "", 
        "odom": "pose -3.213 0.000 270.000 -1.000 0.000 0.000", 
        "crowd": "id pose", 
        "clock": "27.3"
    }, 
    {
        "report": "", 
        "odom": "pose -3.313 0.000 270.000 -1.000 0.000 0.000", 
        "crowd": "id pose", 
        "clock": "27.4"
    }, 
    {
        "report": "", 
        "odom": "pose -3.413 0.000 270.000 -1.000 0.000 0.000", 
        "crowd": "id pose", 
        "clock": "27.5"
    }, 
    {
        "report": "", 
        "odom": "pose -3.513 0.000 270.000 -1.000 0.000 0.000", 
        "crowd": "id pose", 
        "clock": "27.6"
    }, 
    {
        "report": "", 
        "odom": "pose -3.613 0.000 270.000 -1.000 0.000 0.000", 
        "crowd": "id pose", 
        "clock": "27.7"
    }, 
    {
        "report": "", 
        "odom": "pose -3.713 0.000 270.000 -1.000 0.000 0.000", 
        "crowd": "id pose", 
        "clock": "27.8"
    }, 
    {
        "report": "", 
        "odom": "pose -3.813 0.000 270.000 -1.000 0.000 0.000", 
        "crowd": "id pose", 
        "clock": "27.9"
    }, 
    {
        "report": "", 
        "odom": "pose -3.913 0.000 270.000 -1.000 0.000 0.000", 
        "crowd": "id pose", 
        "clock": "28.0"
    }, 
    {
        "report": "", 
        "odom": "pose -4.013 0.000 270.000 -1.000 0.000 0.000", 
        "crowd": "id pose", 
        "clock": "28.1"
    }, 
    {
        "report": "", 
        "odom": "pose -4.113 0.000 270.000 -1.000 0.000 0.000", 
        "crowd": "id pose", 
        "clock": "28.2"
    }, 
    {
        "report": "", 
        "odom": "pose -4.213 0.000 270.000 -1.000 0.000 0.000", 
        "crowd": "id pose", 
        "clock": "28.3"
    }, 
    {
        "report": "", 
        "odom": "pose -4.313 0.000 270.000 -1.000 0.000 0.000", 
        "crowd": "id pose", 
        "clock": "28.4"
    }, 
    {
        "report": "", 
        "odom": "pose -4.413 0.000 270.000 -1.000 0.000 0.000", 
        "crowd": "id pose", 
        "clock": "28.5"
    }, 
    {
        "report": "", 
        "odom": "pose -4.513 0.000 270.000 -1.000 0.000 0.000", 
        "crowd": "id pose", 
        "clock": "28.6"
    }, 
    {
        "report": "", 
        "odom": "pose -4.613 0.000 270.000 -1.000 0.000 0.000", 
        "crowd": "id pose", 
        "clock": "28.7"
    }, 
    {
        "report": "", 
        "odom": "pose -4.713 0.000 270.000 -1.000 0.000 0.000", 
        "crowd": "id pose", 
        "clock": "28.8"
    }, 
    {
        "report": "", 
        "odom": "pose -4.813 0.000 270.000 -1.000 0.000 0.000", 
        "crowd": "id pose", 
        "clock": "28.9"
    }, 
    {
        "report": "", 
        "odom": "pose -4.913 0.000 270.000 -1.000 0.000 0.000", 
        "crowd": "id pose", 
        "clock": "29.0"
    }, 
    {
        "report": "", 
        "odom": "pose -5.013 0.000 270.000 -1.000 0.000 0.000", 
        "crowd": "id pose", 
        "clock": "29.1"
    }, 
    {
        "report": "", 
        "odom": "pose -5.113 0.000 270.000 -1.000 0.000 0.000", 
        "crowd": "id pose", 
        "clock": "29.2"
    }, 
    {
        "report": "", 
        "odom": "pose -5.213 0.000 270.000 -1.000 0.000 0.000", 
        "crowd": "id pose", 
        "clock": "29.3"
    }, 
    {
        "report": "", 
        "odom": "pose -5.313 0.000 270.000 -1.000 0.000 0.000", 
        "crowd": "id pose", 
        "clock": "29.4"
    }, 
    {
        "report": "", 
        "odom": "pose -5.413 0.000 270.000 -1.000 0.000 0.000", 
        "crowd": "id pose", 
        "clock": "29.5"
    }, 
    {
        "report": "", 
        "odom": "pose -5.513 0.000 270.000 -1.000 0.000 0.000", 
        "crowd": "id pose", 
        "clock": "29.6"
    }, 
    {
        "report": "", 
        "odom": "pose -5.613 0.000 270.000 -1.000 0.000 0.000", 
        "crowd": "id pose", 
        "clock": "29.7"
    }, 
    {
        "report": "", 
        "odom": "pose -5.713 0.000 270.000 -1.000 0.000 0.000", 
        "crowd": "id pose", 
        "clock": "29.8"
    }, 
    {
        "report": "", 
        "odom": "pose -5.813 0.000 270.000 -1.000 0.000 0.000", 
        "crowd": "id pose", 
        "clock": "29.9"
    }, 
    {
        "report": "", 
        "odom": "pose -5.913 0.000 270.000 -1.000 0.000 0.000", 
        "crowd": "id pose", 
        "clock": "30.0"
    }, 
    {
        "report": "", 
        "odom": "pose -6.013 0.000 270.000 -1.000 0.000 0.000", 
        "crowd": "id pose", 
        "clock": "30.1"
    }, 
    {
        "report": "", 
        "odom": "pose -6.113 0.000 270.000 -1.000 0.000 0.000", 
        "crowd": "id pose", 
        "clock": "30.2"
    }, 
    {
        "report": "", 
        "odom": "pose -6.213 0.000 270.000 -1.000 0.000 0.000", 
        "crowd": "id pose", 
        "clock": "30.3"
    }, 
    {
        "report": "", 
        "odom": "pose -6.313 0.000 270.000 -1.000 0.000 0.000", 
        "crowd": "id pose", 
        "clock": "30.4"
    }, 
    {
        "report": "", 
        "odom": "pose -6.413 0.000 270.000 -1.000 0.000 0.000", 
        "crowd": "id pose", 
        "clock": "30.5"
    }, 
    {
        "report": "", 
        "odom": "pose -6.513 0.000 270.000 -1.000 0.000 0.000", 
        "crowd": "id pose", 
        "clock": "30.6"
    }, 
    {
        "report": "", 
        "odom": "pose -6.613 0.000 270.000 -1.000 0.000 0.000", 
        "crowd": "id pose", 
        "clock": "30.7"
    }, 
    {
        "report": "", 
        "odom": "pose -6.713 0.000 270.000 -1.000 0.000 0.000", 
        "crowd": "id pose", 
        "clock": "30.8"
    }, 
    {
        "report": "", 
        "odom": "pose -6.813 0.000 270.000 -1.000 0.000 0.000", 
        "crowd": "id pose", 
        "clock": "30.9"
    }, 
    {
        "report": "", 
        "odom": "pose -6.913 0.000 270.000 -1.000 0.000 0.000", 
        "crowd": "id pose", 
        "clock": "31.0"
    }, 
    {
        "report": "", 
        "odom": "pose -7.013 0.000 270.000 -1.000 0.000 0.000", 
        "crowd": "id pose", 
        "clock": "31.1"
    }, 
    {
        "report": "", 
        "odom": "pose -7.113 0.000 270.000 -1.000 0.000 0.000", 
        "crowd": "id pose", 
        "clock": "31.2"
    }, 
    {
        "report": "", 
        "odom": "pose -7.213 0.000 270.000 -1.000 0.000 0.000", 
        "crowd": "id pose", 
        "clock": "31.3"
    }, 
    {
        "report": "", 
        "odom": "pose -7.313 0.000 270.000 -1.000 0.000 0.000", 
        "crowd": "id pose", 
        "clock": "31.4"
    }, 
    {
        "report": "", 
        "odom": "pose -7.413 0.000 270.000 -1.000 0.000 0.000", 
        "crowd": "id pose", 
        "clock": "31.5"
    }, 
    {
        "report": "", 
        "odom": "pose -7.513 0.000 270.000 -1.000 0.000 0.000", 
        "crowd": "id pose", 
        "clock": "31.6"
    }, 
    {
        "report": "", 
        "odom": "pose -7.613 0.000 270.000 -1.000 0.000 0.000", 
        "crowd": "id pose", 
        "clock": "31.7"
    }, 
    {
        "report": "", 
        "odom": "pose -7.713 0.000 270.000 -1.000 0.000 0.000", 
        "crowd": "id pose", 
        "clock": "31.8"
    }, 
    {
        "report": "", 
        "odom": "pose -7.813 0.000 270.000 -1.000 0.000 0.000", 
        "crowd": "id pose", 
        "clock": "31.9"
    }, 
    {
        "report": "", 
        "odom": "pose -7.913 0.000 270.000 -1.000 0.000 0.000", 
        "crowd": "id pose", 
        "clock": "32.0"
    }, 
    {
        "report": "", 
        "odom": "pose -8.013 0.000 270.000 -1.000 0.000 0.000", 
        "crowd": "id pose", 
        "clock": "32.1"
    }, 
    {
        "report": "", 
        "odom": "pose -8.113 0.000 270.000 -1.000 0.000 0.000", 
        "crowd": "id pose", 
        "clock": "32.2"
    }, 
    {
        "report": "", 
        "odom": "pose -8.213 0.000 270.000 -1.000 0.000 0.000", 
        "crowd": "id pose", 
        "clock": "32.3"
    }, 
    {
        "report": "", 
        "odom": "pose -8.313 0.000 270.000 -1.000 0.000 0.000", 
        "crowd": "id pose", 
        "clock": "32.4"
    }, 
    {
        "report": "", 
        "odom": "pose -8.413 0.000 270.000 -1.000 0.000 0.000", 
        "crowd": "id pose", 
        "clock": "32.5"
    }, 
    {
        "report": "", 
        "odom": "pose -8.513 0.000 270.000 -1.000 0.000 0.000", 
        "crowd": "id pose", 
        "clock": "32.6"
    }, 
    {
        "report": "", 
        "odom": "pose -8.613 0.000 270.000 -1.000 0.000 0.000", 
        "crowd": "id pose", 
        "clock": "32.7"
    }, 
    {
        "report": "", 
        "odom": "pose -8.713 0.000 270.000 -1.000 0.000 0.000", 
        "crowd": "id pose", 
        "clock": "32.8"
    }, 
    {
        "report": "", 
        "odom": "pose -8.813 0.000 270.000 -1.000 0.000 0.000", 
        "crowd": "id pose", 
        "clock": "32.9"
    }, 
    {
        "report": "", 
        "odom": "pose -8.913 0.000 270.000 -1.000 0.000 0.000", 
        "crowd": "id pose", 
        "clock": "33.0"
    }, 
    {
        "report": "", 
        "odom": "pose -9.013 0.000 270.000 -1.000 0.000 0.000", 
        "crowd": "id pose", 
        "clock": "33.1"
    }, 
    {
        "report": "", 
        "odom": "pose -9.113 0.000 270.000 -1.000 0.000 0.000", 
        "crowd": "id pose", 
        "clock": "33.2"
    }, 
    {
        "report": "", 
        "odom": "pose -9.213 0.000 270.000 -1.000 0.000 0.000", 
        "crowd": "id pose", 
        "clock": "33.3"
    }, 
    {
        "report": "", 
        "odom": "pose -9.313 0.000 270.000 -1.000 0.000 0.000", 
        "crowd": "id pose", 
        "clock": "33.4"
    }, 
    {
        "report": "", 
        "odom": "pose -9.413 0.000 270.000 -1.000 0.000 0.000", 
        "crowd": "id pose", 
        "clock": "33.5"
    }, 
    {
        "report": "", 
        "odom": "pose -9.513 0.000 270.000 -1.000 0.000 0.000", 
        "crowd": "id pose", 
        "clock": "33.6"
    }, 
    {
        "report": "", 
        "odom": "pose -9.613 0.000 270.000 -1.000 0.000 0.000", 
        "crowd": "id pose", 
        "clock": "33.7"
    }, 
    {
        "report": "", 
        "odom": "pose -9.713 0.000 270.000 -1.000 0.000 0.000", 
        "crowd": "id pose", 
        "clock": "33.8"
    }, 
    {
        "report": "", 
        "odom": "pose -9.813 0.000 270.000 -1.000 0.000 0.000", 
        "crowd": "id pose", 
        "clock": "33.9"
    }, 
    {
        "report": "", 
        "odom": "pose -9.913 0.000 270.000 -1.000 0.000 0.000", 
        "crowd": "id pose", 
        "clock": "34.0"
    }, 
    {
        "report": "", 
        "odom": "pose -10.013 0.000 270.000 -1.000 0.000 0.000", 
        "crowd": "id pose", 
        "clock": "34.1"
    }, 
    {
        "report": "", 
        "odom": "pose -10.113 0.000 270.000 -1.000 0.000 0.000", 
        "crowd": "id pose", 
        "clock": "34.2"
    }, 
    {
        "report": "", 
        "odom": "pose -10.213 0.000 270.000 -1.000 0.000 0.000", 
        "crowd": "id pose", 
        "clock": "34.3"
    }, 
    {
        "report": "", 
        "odom": "pose -10.313 0.000 270.000 -1.000 0.000 0.000", 
        "crowd": "id pose", 
        "clock": "34.4"
    }, 
    {
        "report": "", 
        "odom": "pose -10.413 0.000 270.000 -1.000 0.000 0.000", 
        "crowd": "id pose", 
        "clock": "34.5"
    }, 
    {
        "report": "", 
        "odom": "pose -10.513 0.000 270.000 -1.000 0.000 0.000", 
        "crowd": "id pose", 
        "clock": "34.6"
    }, 
    {
        "report": "", 
        "odom": "pose -10.613 0.000 270.000 -1.000 0.000 0.000", 
        "crowd": "id pose", 
        "clock": "34.7"
    }, 
    {
        "report": "", 
        "odom": "pose -10.713 0.000 270.000 -1.000 0.000 0.000", 
        "crowd": "id pose", 
        "clock": "34.8"
    }, 
    {
        "report": "", 
        "odom": "pose -10.813 0.000 270.000 -1.000 0.000 0.000", 
        "crowd": "id pose", 
        "clock": "34.9"
    }, 
    {
        "report": "", 
        "odom": "pose -10.913 0.000 270.000 -1.000 0.000 0.000", 
        "crowd": "id pose", 
        "clock": "35.0"
    }, 
    {
        "report": "", 
        "odom": "pose -11.013 0.000 270.000 -1.000 0.000 0.000", 
        "crowd": "id pose", 
        "clock": "35.1"
    }, 
    {
        "report": "", 
        "odom": "pose -11.113 0.000 270.000 -1.000 0.000 0.000", 
        "crowd": "id pose", 
        "clock": "35.2"
    }, 
    {
        "report": "", 
        "odom": "pose -11.213 0.000 270.000 -1.000 0.000 0.000", 
        "crowd": "id pose", 
        "clock": "35.3"
    }, 
    {
        "report": "", 
        "odom": "pose -11.313 0.000 270.000 -1.000 0.000 0.000", 
        "crowd": "id pose", 
        "clock": "35.4"
    }, 
    {
        "report": "", 
        "odom": "pose -11.413 0.000 270.000 -1.000 0.000 0.000", 
        "crowd": "id pose", 
        "clock": "35.5"
    }, 
    {
        "report": "", 
        "odom": "pose -11.513 0.000 270.000 -1.000 0.000 0.000", 
        "crowd": "id pose", 
        "clock": "35.6"
    }, 
    {
        "report": "", 
        "odom": "pose -11.613 0.000 270.000 -1.000 0.000 0.000", 
        "crowd": "id pose", 
        "clock": "35.7"
    }, 
    {
        "report": "", 
        "odom": "pose -11.713 0.000 270.000 -1.000 0.000 0.000", 
        "crowd": "id pose", 
        "clock": "35.8"
    }, 
    {
        "report": "", 
        "odom": "pose -11.813 0.000 270.000 -1.000 0.000 0.000", 
        "crowd": "id pose", 
        "clock": "35.9"
    }, 
    {
        "report": "", 
        "odom": "pose -11.913 0.000 270.000 -1.000 0.000 0.000", 
        "crowd": "id pose", 
        "clock": "36.0"
    }, 
    {
        "report": "", 
        "odom": "pose -12.013 0.000 270.000 -1.000 0.000 0.000", 
        "crowd": "id pose", 
        "clock": "36.1"
    }, 
    {
        "report": "", 
        "odom": "pose -12.113 0.000 270.000 -1.000 0.000 0.000", 
        "crowd": "id pose", 
        "clock": "36.2"
    }, 
    {
        "report": "", 
        "odom": "pose -12.213 0.000 270.000 -1.000 0.000 0.000", 
        "crowd": "id pose", 
        "clock": "36.3"
    }, 
    {
        "report": "", 
        "odom": "pose -12.313 0.000 270.000 -1.000 0.000 0.000", 
        "crowd": "id pose", 
        "clock": "36.4"
    }, 
    {
        "report": "", 
        "odom": "pose -12.413 0.000 270.000 -1.000 0.000 0.000", 
        "crowd": "id pose", 
        "clock": "36.5"
    }, 
    {
        "report": "", 
        "odom": "pose -12.513 0.000 270.000 -1.000 0.000 0.000", 
        "crowd": "id pose", 
        "clock": "36.6"
    }, 
    {
        "report": "", 
        "odom": "pose -12.613 0.000 270.000 -1.000 0.000 0.000", 
        "crowd": "id pose", 
        "clock": "36.7"
    }, 
    {
        "report": "", 
        "odom": "pose -12.713 0.000 270.000 -1.000 0.000 0.000", 
        "crowd": "id pose", 
        "clock": "36.8"
    }, 
    {
        "report": "", 
        "odom": "pose -12.813 0.000 270.000 -1.000 0.000 0.000", 
        "crowd": "id pose", 
        "clock": "36.9"
    }, 
    {
        "report": "", 
        "odom": "pose -12.913 0.000 270.000 -1.000 0.000 0.000", 
        "crowd": "id pose", 
        "clock": "37.0"
    }, 
    {
        "report": "", 
        "odom": "pose -13.013 0.000 270.000 -1.000 0.000 0.000", 
        "crowd": "id pose", 
        "clock": "37.1"
    }, 
    {
        "report": "", 
        "odom": "pose -13.113 0.000 270.000 -1.000 0.000 0.000", 
        "crowd": "id pose", 
        "clock": "37.2"
    }, 
    {
        "report": "", 
        "odom": "pose -13.213 0.000 270.000 -1.000 0.000 0.000", 
        "crowd": "id pose", 
        "clock": "37.3"
    }, 
    {
        "report": "", 
        "odom": "pose -13.313 0.000 270.000 -1.000 0.000 0.000", 
        "crowd": "id pose", 
        "clock": "37.4"
    }, 
    {
        "report": "", 
        "odom": "pose -13.413 0.000 270.000 -1.000 0.000 0.000", 
        "crowd": "id pose", 
        "clock": "37.5"
    }, 
    {
        "report": "", 
        "odom": "pose -13.513 0.000 270.000 -1.000 0.000 0.000", 
        "crowd": "id pose", 
        "clock": "37.6"
    }, 
    {
        "report": "", 
        "odom": "pose -13.613 0.000 270.000 -1.000 0.000 0.000", 
        "crowd": "id pose", 
        "clock": "37.7"
    }, 
    {
        "report": "", 
        "odom": "pose -13.713 0.000 270.000 -1.000 0.000 0.000", 
        "crowd": "id pose", 
        "clock": "37.8"
    }, 
    {
        "report": "", 
        "odom": "pose -13.814 0.000 270.000 -1.000 0.000 0.000", 
        "crowd": "id pose", 
        "clock": "37.9"
    }, 
    {
        "report": "", 
        "odom": "pose -13.914 0.000 270.000 -1.000 0.000 0.000", 
        "crowd": "id pose", 
        "clock": "38.0"
    }, 
    {
        "report": "", 
        "odom": "pose -14.014 0.000 270.000 -1.000 0.000 0.000", 
        "crowd": "id pose", 
        "clock": "38.1"
    }, 
    {
        "report": "", 
        "odom": "pose -14.114 0.000 270.000 -1.000 0.000 0.000", 
        "crowd": "id pose", 
        "clock": "38.2"
    }, 
    {
        "report": "", 
        "odom": "pose -14.214 0.000 270.000 -1.000 0.000 0.000", 
        "crowd": "id pose", 
        "clock": "38.3"
    }, 
    {
        "report": "", 
        "odom": "pose -14.314 0.000 270.000 -1.000 0.000 0.000", 
        "crowd": "id pose", 
        "clock": "38.4"
    }, 
    {
        "report": "", 
        "odom": "pose -14.414 0.000 270.000 -1.000 0.000 0.000", 
        "crowd": "id pose", 
        "clock": "38.5"
    }, 
    {
        "report": "", 
        "odom": "pose -14.514 0.000 270.000 -1.000 0.000 0.000", 
        "crowd": "id pose", 
        "clock": "38.6"
    }, 
    {
        "report": "", 
        "odom": "pose -14.614 0.000 270.000 -1.000 0.000 0.000", 
        "crowd": "id pose", 
        "clock": "38.7"
    }, 
    {
        "report": "", 
        "odom": "pose -14.714 0.000 270.000 -1.000 0.000 0.000", 
        "crowd": "id pose", 
        "clock": "38.8"
    }, 
    {
        "report": "", 
        "odom": "pose -14.814 0.000 270.000 -1.000 0.000 0.000", 
        "crowd": "id pose", 
        "clock": "38.9"
    }, 
    {
        "report": "", 
        "odom": "pose -14.914 0.000 270.000 -1.000 0.000 0.000", 
        "crowd": "id pose", 
        "clock": "39.0"
    }, 
    {
        "report": "", 
        "odom": "pose -15.014 0.000 270.000 -1.000 0.000 0.000", 
        "crowd": "id pose", 
        "clock": "39.1"
    }, 
    {
        "report": "", 
        "odom": "pose -15.114 0.000 270.000 -1.000 0.000 0.000", 
        "crowd": "id pose", 
        "clock": "39.2"
    }, 
    {
        "report": "", 
        "odom": "pose -15.214 0.000 270.000 -1.000 0.000 0.000", 
        "crowd": "id pose", 
        "clock": "39.3"
    }, 
    {
        "report": "", 
        "odom": "pose -15.314 0.000 270.000 -1.000 0.000 0.000", 
        "crowd": "id pose", 
        "clock": "39.4"
    }, 
    {
        "report": "", 
        "odom": "pose -15.414 0.000 270.000 -1.000 0.000 0.000", 
        "crowd": "id pose", 
        "clock": "39.5"
    }, 
    {
        "report": "", 
        "odom": "pose -15.514 0.000 270.000 -1.000 0.000 0.000", 
        "crowd": "id pose", 
        "clock": "39.6"
    }, 
    {
        "report": "", 
        "odom": "pose -15.614 0.000 270.000 -1.000 0.000 0.000", 
        "crowd": "id pose", 
        "clock": "39.7"
    }, 
    {
        "report": "", 
        "odom": "pose -15.714 0.000 270.000 -1.000 0.000 0.000", 
        "crowd": "id pose", 
        "clock": "39.8"
    }, 
    {
        "report": "", 
        "odom": "pose -15.814 0.000 270.000 -1.000 0.000 0.000", 
        "crowd": "id pose", 
        "clock": "39.9"
    }, 
    {
        "report": "", 
        "odom": "pose -15.914 0.000 270.000 -1.000 0.000 0.000", 
        "crowd": "id pose", 
        "clock": "40.0"
    }, 
    {
        "report": "", 
        "odom": "pose -16.014 0.000 270.000 -1.000 0.000 0.000", 
        "crowd": "id pose", 
        "clock": "40.1"
    }, 
    {
        "report": "", 
        "odom": "pose -16.114 0.000 270.000 -1.000 0.000 0.000", 
        "crowd": "id pose", 
        "clock": "40.2"
    }, 
    {
        "report": "", 
        "odom": "pose -16.214 0.000 270.000 -1.000 0.000 0.000", 
        "crowd": "id pose", 
        "clock": "40.3"
    }, 
    {
        "report": "", 
        "odom": "pose -16.314 0.000 270.000 -1.000 0.000 0.000", 
        "crowd": "id pose", 
        "clock": "40.4"
    }, 
    {
        "report": "", 
        "odom": "pose -16.414 0.000 270.000 -1.000 0.000 0.000", 
        "crowd": "id pose", 
        "clock": "40.5"
    }, 
    {
        "report": "", 
        "odom": "pose -16.514 0.000 270.000 -1.000 0.000 0.000", 
        "crowd": "id pose", 
        "clock": "40.6"
    }, 
    {
        "report": "", 
        "odom": "pose -16.614 0.000 270.000 -1.000 0.000 0.000", 
        "crowd": "id pose", 
        "clock": "40.7"
    }, 
    {
        "report": "", 
        "odom": "pose -16.714 0.000 270.000 -1.000 0.000 0.000", 
        "crowd": "id pose", 
        "clock": "40.8"
    }, 
    {
        "report": "", 
        "odom": "pose -16.814 0.000 270.000 -1.000 0.000 0.000", 
        "crowd": "id pose", 
        "clock": "40.9"
    }, 
    {
        "report": "", 
        "odom": "pose -16.914 0.000 270.000 -1.000 0.000 0.000", 
        "crowd": "id pose", 
        "clock": "41.0"
    }, 
    {
        "report": "", 
        "odom": "pose -17.014 0.000 270.000 -1.000 0.000 0.000", 
        "crowd": "id pose", 
        "clock": "41.1"
    }, 
    {
        "report": "", 
        "odom": "pose -17.114 0.000 270.000 -1.000 0.000 0.000", 
        "crowd": "id pose", 
        "clock": "41.2"
    }, 
    {
        "report": "", 
        "odom": "pose -17.214 0.000 270.000 -1.000 0.000 0.000", 
        "crowd": "id pose", 
        "clock": "41.3"
    }, 
    {
        "report": "", 
        "odom": "pose -17.314 0.000 270.000 -1.000 0.000 0.000", 
        "crowd": "id pose", 
        "clock": "41.4"
    }, 
    {
        "report": "", 
        "odom": "pose -17.414 0.000 270.000 -1.000 0.000 0.000", 
        "crowd": "id pose", 
        "clock": "41.5"
    }, 
    {
        "report": "", 
        "odom": "pose -17.514 0.000 270.000 -1.000 0.000 0.000", 
        "crowd": "id pose", 
        "clock": "41.6"
    }, 
    {
        "report": "", 
        "odom": "pose -17.614 0.000 270.000 -1.000 0.000 0.000", 
        "crowd": "id pose", 
        "clock": "41.7"
    }, 
    {
        "report": "", 
        "odom": "pose -17.714 0.000 270.000 -1.000 0.000 0.000", 
        "crowd": "id pose", 
        "clock": "41.8"
    }, 
    {
        "report": "", 
        "odom": "pose -17.814 0.000 270.000 -1.000 0.000 0.000", 
        "crowd": "id pose", 
        "clock": "41.9"
    }, 
    {
        "report": "", 
        "odom": "pose -17.914 0.000 270.000 -1.000 0.000 0.000", 
        "crowd": "id pose", 
        "clock": "42.0"
    }, 
    {
        "report": "", 
        "odom": "pose -18.014 0.000 270.000 -1.000 0.000 0.000", 
        "crowd": "id pose", 
        "clock": "42.1"
    }, 
    {
        "report": "", 
        "odom": "pose -18.114 0.000 270.000 -1.000 0.000 0.000", 
        "crowd": "id pose", 
        "clock": "42.2"
    }, 
    {
        "report": "", 
        "odom": "pose -18.214 0.000 270.000 -1.000 0.000 0.000", 
        "crowd": "id pose", 
        "clock": "42.3"
    }, 
    {
        "report": "", 
        "odom": "pose -18.314 0.000 270.000 -1.000 0.000 0.000", 
        "crowd": "id pose", 
        "clock": "42.4"
    }, 
    {
        "report": "", 
        "odom": "pose -18.414 0.000 270.000 -1.000 0.000 0.000", 
        "crowd": "id pose", 
        "clock": "42.5"
    }, 
    {
        "report": "", 
        "odom": "pose -18.514 0.000 270.000 -1.000 0.000 0.000", 
        "crowd": "id pose", 
        "clock": "42.6"
    }, 
    {
        "report": "", 
        "odom": "pose -18.614 0.000 270.000 -1.000 0.000 0.000", 
        "crowd": "id pose", 
        "clock": "42.7"
    }, 
    {
        "report": "", 
        "odom": "pose -18.714 0.000 270.000 -1.000 0.000 0.000", 
        "crowd": "id pose", 
        "clock": "42.8"
    }, 
    {
        "report": "", 
        "odom": "pose -18.814 0.000 270.000 -1.000 0.000 0.000", 
        "crowd": "id pose", 
        "clock": "42.9"
    }, 
    {
        "report": "", 
        "odom": "pose -18.914 0.000 270.000 -1.000 0.000 0.000", 
        "crowd": "id pose", 
        "clock": "43.0"
    }, 
    {
        "report": "", 
        "odom": "pose -19.014 0.000 270.000 -1.000 0.000 0.000", 
        "crowd": "id pose", 
        "clock": "43.1"
    }, 
    {
        "report": "", 
        "odom": "pose -19.114 0.000 270.000 -1.000 0.000 0.000", 
        "crowd": "id pose", 
        "clock": "43.2"
    }, 
    {
        "report": "", 
        "odom": "pose -19.214 0.000 270.000 -1.000 0.000 0.000", 
        "crowd": "id pose", 
        "clock": "43.3"
    }, 
    {
        "report": "", 
        "odom": "pose -19.314 0.000 270.000 -1.000 0.000 0.000", 
        "crowd": "id pose", 
        "clock": "43.4"
    }, 
    {
        "report": "", 
        "odom": "pose -19.414 0.000 270.000 -1.000 0.000 0.000", 
        "crowd": "id pose", 
        "clock": "43.5"
    }, 
    {
        "report": "", 
        "odom": "pose -19.514 0.000 270.000 -1.000 0.000 0.000", 
        "crowd": "id pose", 
        "clock": "43.6"
    }, 
    {
        "report": "", 
        "odom": "pose -19.614 0.000 270.000 -1.000 0.000 0.000", 
        "crowd": "id pose", 
        "clock": "43.7"
    }, 
    {
        "report": "", 
        "odom": "pose -19.714 0.000 270.000 -1.000 0.000 0.000", 
        "crowd": "id pose", 
        "clock": "43.8"
    }, 
    {
        "report": "", 
        "odom": "pose -19.814 0.000 270.000 -1.000 0.000 0.000", 
        "crowd": "id pose", 
        "clock": "43.9"
    }, 
    {
        "report": "", 
        "odom": "pose -19.914 0.000 270.000 -1.000 0.000 0.000", 
        "crowd": "id pose", 
        "clock": "44.0"
    }, 
    {
        "report": "", 
        "odom": "pose -20.014 0.000 270.000 -1.000 0.000 0.000", 
        "crowd": "id pose", 
        "clock": "44.1"
    }
]