[
    {
        "report": "", 
        "odom": "pose -20.198 -0.012 269.963 -1.000 -0.001 0.000", 
        "crowd": "id pose 2 (-16.740 -4.439) 3 (-17.780 1.465) 4 (-19.887 -3.948) 5 (-21.113 -3.875) 6 (-24.103 -3.918) 7 (-18.083 -3.968) 8 (-15.868 2.075) 9 (-15.057 -4.607) 10 (-18.639 -3.118) 11 (-17.130 2.024) 12 (-15.430 3.973) 13 (-20.566 -1.894) 14 (-17.876 -0.273) 15 (-19.133 0.067) 16 (-21.019 -2.441) 17 (-17.159 -3.053) 18 (12.447 -1.335) 19 (-14.618 2.940) 20 (-20.978 -0.355) 21 (20.721 -1.027) 22 (-23.519 -4.245) 23 (-21.470 -0.782) 24 (-14.771 -3.684) 25 (-19.118 3.617) 26 (-19.926 -3.159) 27 (-22.678 2.574) 28 (-18.803 2.915) 29 (-2.284 0.898) 30 (-18.932 2.262) 31 (-15.999 0.772) 32 (-21.237 4.125) 33 (-21.897 1.120) 34 (-17.254 -0.043) 35 (-22.238 -0.136) 36 (-20.736 0.474) 37 (-23.124 -4.749) 38 (-16.644 0.658) 39 (-15.928 -0.197) 40 (-15.619 3.327) 41 (-17.775 -1.726) 42 (-6.024 -4.219) 43 (-5.202 1.802) 44 (-11.644 1.667) 45 (-11.610 -4.077) 46 (-5.826 0.708) 47 (-14.968 2.302) 48 (-7.262 -1.799) 49 (-11.169 2.883) 50 (-8.462 4.425) 51 (-7.541 -4.734) 52 (-8.240 -3.730) 53 (-9.554 -4.624) 54 (-13.050 1.937) 55 (-14.075 -2.561) 56 (-8.476 -2.209) 57 (-14.090 -1.226) 58 (-6.465 0.875) 59 (-11.382 2.271) 60 (-11.302 1.137) 61 (-12.199 1.296) 62 (-13.776 2.196) 63 (-13.133 -0.657) 64 (-5.850 0.044) 65 (-11.564 3.413) 66 (-14.026 0.666) 67 (-6.602 -2.686) 68 (-8.616 -0.152) 69 (-6.045 1.388) 70 (-8.293 3.196) 71 (-14.485 4.209) 72 (-12.791 -0.116) 73 (-10.343 -4.200) 74 (-9.024 -2.611) 75 (-6.188 -0.914) 76 (-7.812 4.305) 77 (-6.728 4.687) 78 (-7.912 -3.004) 79 (-9.567 3.304) 80 (-6.841 -1.064) 81 (-12.542 3.163) 82 (0.252 -4.085) 83 (0.348 2.176) 84 (-3.396 2.106) 85 (2.654 2.050) 86 (-0.058 0.374) 87 (-0.012 3.089) 88 (-1.293 2.663) 89 (3.140 -4.478) 90 (4.973 1.238) 91 (-2.518 -3.864) 92 (-4.186 -3.148) 93 (-2.158 -1.285) 94 (4.306 0.964) 95 (0.640 -1.509) 96 (-2.662 -4.524) 97 (-5.343 -2.622) 98 (-4.022 1.313) 99 (-2.854 -0.601) 100 (2.673 -3.757) 101 (2.013 -3.100) 102 (4.107 -3.982) 103 (-0.656 0.826) 104 (-2.144 -3.315) 105 (-1.865 3.954) 106 (4.789 2.046) 107 (-2.293 3.223) 108 (-3.459 -3.204) 109 (2.037 0.055) 110 (0.896 0.940) 111 (-3.999 -3.884) 112 (1.623 -0.435) 113 (-4.587 2.040) 114 (2.668 0.223) 115 (1.556 3.478) 116 (-4.671 -0.906) 117 (-0.650 3.309) 118 (-4.675 2.826) 119 (-3.243 -3.804) 120 (-1.957 2.643) 121 (4.438 2.976) 122 (7.525 3.187) 123 (11.988 -2.796) 124 (5.513 -3.420) 125 (12.709 2.653) 126 (7.510 -1.932) 127 (13.621 -4.078) 128 (11.842 -0.436) 129 (9.599 -1.381) 130 (11.344 3.293) 131 (8.054 -2.399) 132 (14.345 0.802) 133 (9.873 1.725) 134 (6.649 3.810) 135 (8.539 1.363) 136 (10.543 1.488) 137 (7.067 -1.323) 138 (5.496 3.155) 139 (11.545 2.396) 140 (13.907 -1.377) 141 (14.319 -3.780) 142 (12.716 -0.769) 143 (7.822 2.573) 144 (12.015 -1.823) 145 (6.410 1.731) 146 (10.494 -3.241) 147 (11.182 -0.446) 148 (10.664 3.854) 149 (13.809 2.750) 150 (5.098 3.872) 151 (13.635 1.507) 152 (14.232 -4.611) 153 (7.148 2.640) 154 (10.642 -4.596) 155 (10.516 -3.943) 156 (8.342 -2.994) 157 (7.284 4.376) 158 (11.087 0.213) 159 (9.670 -2.052) 160 (14.482 4.273) 161 (6.277 -0.148) 162 (-10.452 -2.627) 163 (18.128 4.592) 164 (21.419 3.948) 165 (19.723 1.093) 166 (16.992 -1.302) 167 (23.207 -1.504) 168 (20.383 0.423) 169 (16.612 -2.045) 170 (15.055 2.133) 171 (16.537 -4.655) 172 (20.138 4.028) 173 (22.391 -0.941) 174 (19.213 -3.928) 175 (22.030 1.511) 176 (18.485 -2.895) 177 (22.376 4.490) 178 (17.118 -0.298) 179 (17.652 -1.279) 180 (20.603 3.584) 181 (16.231 -1.531) 182 (21.725 -1.005) 183 (18.780 1.081) 184 (20.786 -2.153) 185 (15.155 -1.042) 186 (23.935 -2.377) 187 (23.216 -3.176) 188 (18.231 -0.687) 189 (14.963 -1.650) 190 (17.270 2.585) 191 (20.266 4.653) 192 (23.102 0.701) 193 (15.587 -1.863) 194 (20.821 4.228) 195 (23.887 1.697) 196 (23.042 -0.854) 197 (19.080 -0.615) 198 (15.005 0.499) 199 (19.919 3.388) 200 (18.553 -3.576) 201 (15.978 3.319)", 
        "clock": "0.5"
    }, 
    {
        "report": "", 
        "odom": "pose -20.198 -0.012 269.963 -1.000 -0.001 0.000", 
        "crowd": "id pose 2 (-16.740 -4.439) 3 (-17.780 1.465) 4 (-19.887 -3.948) 5 (-21.113 -3.875) 6 (-24.103 -3.918) 7 (-18.083 -3.968) 8 (-15.868 2.075) 9 (-15.057 -4.607) 10 (-18.639 -3.118) 11 (-17.130 2.024) 12 (-15.430 3.973) 13 (-20.566 -1.894) 14 (-17.876 -0.273) 15 (-19.133 0.067) 16 (-21.019 -2.441) 17 (-17.159 -3.053) 18 (12.447 -1.335) 19 (-14.618 2.940) 20 (-20.978 -0.355) 21 (20.721 -1.027) 22 (-23.519 -4.245) 23 (-21.470 -0.782) 24 (-14.771 -3.684) 25 (-19.118 3.617) 26 (-19.926 -3.159) 27 (-22.678 2.574) 28 (-18.803 2.915) 29 (-2.284 0.898) 30 (-18.932 2.262) 31 (-15.999 0.772) 32 (-21.237 4.125) 33 (-21.897 1.120) 34 (-17.254 -0.043) 35 (-22.238 -0.136) 36 (-20.736 0.474) 37 (-23.124 -4.749) 38 (-16.644 0.658) 39 (-15.928 -0.197) 40 (-15.619 3.327) 41 (-17.775 -1.726) 42 (-6.024 -4.219) 43 (-5.202 1.802) 44 (-11.644 1.667) 45 (-11.610 -4.077) 46 (-5.826 0.708) 47 (-14.968 2.302) 48 (-7.262 -1.799) 49 (-11.169 2.883) 50 (-8.462 4.425) 51 (-7.541 -4.734) 52 (-8.240 -3.730) 53 (-9.554 -4.624) 54 (-13.050 1.937) 55 (-14.075 -2.561) 56 (-8.476 -2.209) 57 (-14.090 -1.226) 58 (-6.465 0.875) 59 (-11.382 2.271) 60 (-11.302 1.137) 61 (-12.199 1.296) 62 (-13.776 2.196) 63 (-13.133 -0.657) 64 (-5.850 0.044) 65 (-11.564 3.413) 66 (-14.026 0.666) 67 (-6.602 -2.686) 68 (-8.616 -0.152) 69 (-6.045 1.388) 70 (-8.293 3.196) 71 (-14.485 4.209) 72 (-12.791 -0.116) 73 (-10.343 -4.200) 74 (-9.024 -2.611) 75 (-6.188 -0.914) 76 (-7.812 4.305) 77 (-6.728 4.687) 78 (-7.912 -3.004) 79 (-9.567 3.304) 80 (-6.841 -1.064) 81 (-12.542 3.163) 82 (0.252 -4.085) 83 (0.348 2.176) 84 (-3.396 2.106) 85 (2.654 2.050) 86 (-0.058 0.374) 87 (-0.012 3.089) 88 (-1.293 2.663) 89 (3.140 -4.478) 90 (4.973 1.238) 91 (-2.518 -3.864) 92 (-4.186 -3.148) 93 (-2.158 -1.285) 94 (4.306 0.964) 95 (0.640 -1.509) 96 (-2.662 -4.524) 97 (-5.343 -2.622) 98 (-4.022 1.313) 99 (-2.854 -0.601) 100 (2.673 -3.757) 101 (2.013 -3.100) 102 (4.107 -3.982) 103 (-0.656 0.826) 104 (-2.144 -3.315) 105 (-1.865 3.954) 106 (4.789 2.046) 107 (-2.293 3.223) 108 (-3.459 -3.204) 109 (2.037 0.055) 110 (0.896 0.940) 111 (-3.999 -3.884) 112 (1.623 -0.435) 113 (-4.587 2.040) 114 (2.668 0.223) 115 (1.556 3.478) 116 (-4.671 -0.906) 117 (-0.650 3.309) 118 (-4.675 2.826) 119 (-3.243 -3.804) 120 (-1.957 2.643) 121 (4.438 2.976) 122 (7.525 3.187) 123 (11.988 -2.796) 124 (5.513 -3.420) 125 (12.709 2.653) 126 (7.510 -1.932) 127 (13.621 -4.078) 128 (11.842 -0.436) 129 (9.599 -1.381) 130 (11.344 3.293) 131 (8.054 -2.399) 132 (14.345 0.802) 133 (9.873 1.725) 134 (6.649 3.810) 135 (8.539 1.363) 136 (10.543 1.488) 137 (7.067 -1.323) 138 (5.496 3.155) 139 (11.545 2.396) 140 (13.907 -1.377) 141 (14.319 -3.780) 142 (12.716 -0.769) 143 (7.822 2.573) 144 (12.015 -1.823) 145 (6.410 1.731) 146 (10.494 -3.241) 147 (11.182 -0.446) 148 (10.664 3.854) 149 (13.809 2.750) 150 (5.098 3.872) 151 (13.635 1.507) 152 (14.232 -4.611) 153 (7.148 2.640) 154 (10.642 -4.596) 155 (10.516 -3.943) 156 (8.342 -2.994) 157 (7.284 4.376) 158 (11.087 0.213) 159 (9.670 -2.052) 160 (14.482 4.273) 161 (6.277 -0.148) 162 (-10.452 -2.627) 163 (18.128 4.592) 164 (21.419 3.948) 165 (19.723 1.093) 166 (16.992 -1.302) 167 (23.207 -1.504) 168 (20.383 0.423) 169 (16.612 -2.045) 170 (15.055 2.133) 171 (16.537 -4.655) 172 (20.138 4.028) 173 (22.391 -0.941) 174 (19.213 -3.928) 175 (22.030 1.511) 176 (18.485 -2.895) 177 (22.376 4.490) 178 (17.118 -0.298) 179 (17.652 -1.279) 180 (20.603 3.584) 181 (16.231 -1.531) 182 (21.725 -1.005) 183 (18.780 1.081) 184 (20.786 -2.153) 185 (15.155 -1.042) 186 (23.935 -2.377) 187 (23.216 -3.176) 188 (18.231 -0.687) 189 (14.963 -1.650) 190 (17.270 2.585) 191 (20.266 4.653) 192 (23.102 0.701) 193 (15.587 -1.863) 194 (20.821 4.228) 195 (23.887 1.697) 196 (23.042 -0.854) 197 (19.080 -0.615) 198 (15.005 0.499) 199 (19.919 3.388) 200 (18.553 -3.576) 201 (15.978 3.319)", 
        "clock": "0.6"
    }, 
    {
        "report": "", 
        "odom": "pose -20.198 -0.012 269.963 -1.000 -0.001 0.000", 
        "crowd": "id pose 2 (-16.534 0.476) 3 (-17.674 1.815) 4 (-18.518 -2.188) 5 (-15.792 0.376) 6 (-23.642 4.104) 7 (-15.373 -0.401) 8 (-20.400 1.351) 9 (-18.916 -3.057) 10 (-21.421 0.541) 11 (-17.097 2.162) 12 (-17.924 1.136) 13 (-21.030 1.730) 14 (-16.752 -1.092) 15 (-22.037 0.446) 16 (-19.903 2.394) 17 (-18.594 0.039) 18 (-17.966 3.613) 19 (-19.106 -3.724) 20 (-15.545 3.083) 21 (-22.429 3.564) 22 (-20.997 0.042) 23 (-19.626 -2.279) 24 (-24.352 -2.435) 25 (-15.789 -0.946) 26 (-16.285 -0.741) 27 (-19.136 1.460) 28 (-21.858 2.368) 29 (-22.790 -0.563) 30 (-22.251 -2.146) 31 (-18.520 1.752) 32 (-16.964 -2.995) 33 (-23.683 -0.565) 34 (-16.278 -0.185) 35 (-23.115 2.439) 36 (-16.115 3.662) 37 (-23.533 0.470) 38 (-23.843 2.247) 39 (-22.984 -1.943) 40 (-22.522 -3.177) 41 (-15.431 -1.750) 42 (-20.904 -0.656) 43 (-15.759 -2.358) 44 (-24.156 3.917) 45 (-18.913 0.622) 46 (-24.452 3.299) 47 (-19.843 1.248) 48 (-22.453 1.237) 49 (-22.143 -0.417) 50 (-20.996 0.933) 51 (-24.166 0.301) 52 (-20.256 -3.560) 53 (-21.289 2.768) 54 (-20.330 -1.143) 55 (-23.147 -2.919) 56 (-23.747 -3.150) 57 (-17.273 1.393) 58 (-15.939 2.484) 59 (-21.981 -3.659) 60 (-17.392 -3.526) 61 (-20.727 -2.288) 62 (-16.387 1.782) 63 (-18.708 -4.185) 64 (-16.486 2.795) 65 (-15.463 -3.060) 66 (-19.703 -1.623) 67 (-15.771 1.522) 68 (-19.035 -2.411) 69 (-23.264 0.986) 70 (-20.479 -2.943) 71 (-16.857 1.076) 72 (-9.699 2.871) 73 (-8.801 3.252) 74 (-9.409 -1.257) 75 (-7.759 -2.888) 76 (-11.546 1.405) 77 (-7.237 -0.313) 78 (-6.943 0.165) 79 (-10.696 2.223) 80 (-7.532 -1.298) 81 (-10.658 -2.844) 82 (-13.901 0.028) 83 (-7.855 3.520) 84 (-11.812 -0.585) 85 (-9.400 0.486) 86 (-7.346 2.615) 87 (-13.604 -3.668) 88 (-14.418 -2.585) 89 (-10.970 -3.635) 90 (-13.608 -0.925) 91 (-12.052 3.625) 92 (-7.374 0.591) 93 (-13.503 -3.004) 94 (-8.218 -0.743) 95 (-9.650 1.802) 96 (-8.792 0.237) 97 (-9.177 -0.694) 98 (-14.027 3.578) 99 (-13.219 -0.024) 100 (-8.297 2.997) 101 (-5.575 -0.865) 102 (-5.640 -1.928) 103 (-12.986 -3.697) 104 (-7.703 1.116) 105 (-11.992 -1.109) 106 (-12.171 0.052) 107 (-5.611 2.080) 108 (-9.917 -0.887) 109 (-10.385 3.161) 110 (-8.349 -1.891) 111 (-12.694 -1.130) 112 (-9.877 -2.608) 113 (-13.448 3.182) 114 (-12.656 -1.813) 115 (-6.469 0.618) 116 (-8.088 -3.916) 117 (-9.060 1.121) 118 (-9.899 0.990) 119 (-8.513 0.810) 120 (-7.065 -1.913) 121 (-5.430 2.758) 122 (-6.130 -2.410) 123 (-13.505 -2.239) 124 (-11.174 3.113) 125 (-8.768 3.868) 126 (-7.859 -2.217) 127 (-6.269 -1.432) 128 (-8.867 -3.070) 129 (-6.593 3.841) 130 (-7.261 4.041) 131 (-8.134 1.642) 132 (-8.839 -1.640) 133 (-11.367 0.017) 134 (-6.066 -0.448) 135 (-10.824 -0.239) 136 (-5.524 -3.543) 137 (-7.958 0.549) 138 (-14.239 -3.379) 139 (-6.203 2.650) 140 (-10.661 0.446) 141 (-8.715 -0.327) 142 (-3.628 1.923) 143 (2.876 1.618) 144 (-1.136 -1.017) 145 (-2.177 -2.982) 146 (0.132 1.010) 147 (-3.349 -3.286) 148 (2.980 -0.446) 149 (1.139 -1.224) 150 (0.169 -2.404) 151 (-4.150 -3.249) 152 (-0.746 1.047) 153 (-2.840 -0.708) 154 (-3.505 -0.489) 155 (1.124 -1.728) 156 (-0.740 -3.785) 157 (-1.067 0.238) 158 (3.252 -3.576) 159 (3.083 2.913) 160 (-0.580 1.595) 161 (4.353 -3.665) 162 (-1.563 2.509) 163 (2.227 3.677) 164 (2.568 -4.204) 165 (1.620 1.592) 166 (1.291 -0.620) 167 (-3.266 3.046) 168 (-1.732 -2.193) 169 (0.323 -1.688) 170 (3.856 -1.929) 171 (2.798 0.599) 172 (-0.757 -2.334) 173 (-2.502 -4.120) 174 (-0.029 3.669) 175 (3.322 -1.288) 176 (0.926 0.860) 177 (2.231 1.258) 178 (-0.874 2.246) 179 (4.111 1.964) 180 (-2.826 -3.022) 181 (-1.154 -1.922) 182 (-1.815 -1.164) 183 (0.802 -2.308) 184 (-2.705 2.417) 185 (-2.835 -1.727) 186 (3.792 -4.031) 187 (-2.393 2.896) 188 (3.498 2.038) 189 (-1.066 -2.983) 190 (-2.890 1.862) 191 (-0.429 0.451) 192 (4.474 1.338) 193 (1.734 3.202) 194 (4.240 3.095) 195 (3.307 -2.498) 196 (-2.603 3.894) 197 (-1.395 -3.429) 198 (2.154 -2.653) 199 (0.770 0.143) 200 (-1.763 3.984) 201 (2.241 2.160) 202 (2.675 -1.056) 203 (0.092 0.043) 204 (2.928 -1.815) 205 (-0.618 -1.160) 206 (-2.333 3.133) 207 (-1.551 3.161) 208 (-0.150 -0.804) 209 (2.797 3.507) 210 (-0.631 -0.292) 211 (2.751 2.381) 212 (8.360 0.287) 213 (8.923 -3.493) 214 (9.698 -0.753) 215 (6.524 -3.359) 216 (11.769 2.331) 217 (12.490 -3.056) 218 (13.408 3.882) 219 (7.672 -1.231) 220 (8.712 0.895) 221 (9.569 -3.167) 222 (9.705 -1.452) 223 (10.000 -2.694) 224 (7.671 -3.288) 225 (11.871 -2.448) 226 (9.298 2.991) 227 (7.229 -0.778) 228 (10.851 1.542) 229 (9.547 -2.516) 230 (12.342 2.765) 231 (13.559 3.213) 232 (11.813 -3.179) 233 (7.436 2.436) 234 (7.167 -1.435) 235 (10.773 -2.712) 236 (10.460 -1.588) 237 (9.972 0.052) 238 (10.285 -3.363) 239 (8.471 -0.640) 240 (7.834 3.602) 241 (11.168 -3.893) 242 (11.662 -1.607) 243 (13.833 -1.763) 244 (12.349 -1.455) 245 (6.494 -1.513) 246 (12.618 3.477) 247 (11.448 0.975) 248 (14.101 0.043) 249 (6.087 3.032) 250 (5.844 0.690) 251 (11.419 0.334) 252 (6.832 2.737) 253 (6.891 3.481) 254 (12.677 -0.308) 255 (5.765 1.650) 256 (12.234 1.245) 257 (10.449 1.682) 258 (12.344 0.329) 259 (8.326 -1.270) 260 (5.511 3.291) 261 (7.651 0.547) 262 (8.643 2.758) 263 (10.410 2.483) 264 (11.235 1.831) 265 (5.695 -3.518) 266 (10.892 -3.464) 267 (6.019 -0.155) 268 (6.393 1.334) 269 (11.090 -1.039) 270 (5.324 -1.671) 271 (7.252 1.089) 272 (13.199 -1.946) 273 (6.100 -4.091) 274 (8.899 -2.251) 275 (10.875 -2.324) 276 (5.688 2.478) 277 (9.680 1.869) 278 (6.783 -3.864) 279 (6.213 -2.832) 280 (7.640 3.029) 281 (9.363 0.962) 282 (17.220 2.412) 283 (17.386 3.514) 284 (17.882 2.479) 285 (18.307 -0.223) 286 (23.322 -2.275) 287 (15.991 1.453) 288 (22.959 2.765) 289 (20.698 -3.363) 290 (19.586 3.242) 291 (15.455 2.696) 292 (16.505 1.886) 293 (22.574 -1.975) 294 (19.658 1.274) 295 (17.250 -0.265) 296 (17.080 1.543) 297 (15.908 3.267) 298 (16.805 -0.937) 299 (18.230 -1.883) 300 (16.585 -2.296) 301 (22.359 0.751) 302 (21.286 -3.031) 303 (22.507 1.540) 304 (20.170 -1.934) 305 (19.044 2.726) 306 (18.512 0.553) 307 (23.538 0.178) 308 (19.718 2.285) 309 (22.387 3.468) 310 (15.591 -1.117) 311 (23.145 -1.637) 312 (21.243 -1.072) 313 (20.459 1.970) 314 (15.589 -1.772) 315 (22.312 -2.481) 316 (18.697 -3.492) 317 (21.279 0.144) 318 (19.059 -0.826) 319 (19.149 0.730) 320 (20.990 2.386) 321 (18.959 -0.125) 322 (23.744 -2.794) 323 (18.441 3.915) 324 (16.113 2.466) 325 (22.530 -3.821) 326 (15.959 -3.941) 327 (19.499 -2.014) 328 (17.583 -2.945) 329 (16.609 0.081) 330 (17.264 -1.445) 331 (23.709 1.715) 332 (22.892 -2.792) 333 (23.487 -1.234) 334 (22.584 -0.086) 335 (21.872 2.970) 336 (20.452 -1.485) 337 (21.439 3.662) 338 (23.154 1.307) 339 (23.487 2.267) 340 (19.001 -1.551) 341 (16.531 1.089) 342 (17.894 0.235) 343 (21.080 -1.667) 344 (15.269 -2.264) 345 (20.810 0.669) 346 (19.345 0.122) 347 (17.054 -3.954) 348 (17.455 -3.463) 349 (20.139 -1.014) 350 (22.315 -1.286) 351 (23.444 -4.152)", 
        "clock": "0.7"
    }, 
    {
        "report": "", 
        "odom": "pose -20.198 -0.012 269.963 -1.000 -0.001 0.000", 
        "crowd": "id pose 2 (-16.534 0.476) 3 (-17.674 1.815) 4 (-18.518 -2.188) 5 (-15.792 0.376) 6 (-23.642 4.104) 7 (-15.373 -0.401) 8 (-20.400 1.351) 9 (-18.916 -3.057) 10 (-21.421 0.541) 11 (-17.097 2.162) 12 (-17.924 1.136) 13 (-21.030 1.730) 14 (-16.752 -1.092) 15 (-22.037 0.446) 16 (-19.903 2.394) 17 (-18.594 0.039) 18 (-17.966 3.613) 19 (-19.106 -3.724) 20 (-15.545 3.083) 21 (-22.429 3.564) 22 (-20.997 0.042) 23 (-19.626 -2.279) 24 (-24.352 -2.435) 25 (-15.789 -0.946) 26 (-16.285 -0.741) 27 (-19.136 1.460) 28 (-21.858 2.368) 29 (-22.790 -0.563) 30 (-22.251 -2.146) 31 (-18.520 1.752) 32 (-16.964 -2.995) 33 (-23.683 -0.565) 34 (-16.278 -0.185) 35 (-23.115 2.439) 36 (-16.115 3.662) 37 (-23.533 0.470) 38 (-23.843 2.247) 39 (-22.984 -1.943) 40 (-22.522 -3.177) 41 (-15.431 -1.750) 42 (-20.904 -0.656) 43 (-15.759 -2.358) 44 (-24.156 3.917) 45 (-18.913 0.622) 46 (-24.452 3.299) 47 (-19.843 1.248) 48 (-22.453 1.237) 49 (-22.143 -0.417) 50 (-20.996 0.933) 51 (-24.166 0.301) 52 (-20.256 -3.560) 53 (-21.289 2.768) 54 (-20.330 -1.143) 55 (-23.147 -2.919) 56 (-23.747 -3.150) 57 (-17.273 1.393) 58 (-15.939 2.484) 59 (-21.981 -3.659) 60 (-17.392 -3.526) 61 (-20.727 -2.288) 62 (-16.387 1.782) 63 (-18.708 -4.185) 64 (-16.486 2.795) 65 (-15.463 -3.060) 66 (-19.703 -1.623) 67 (-15.771 1.522) 68 (-19.035 -2.411) 69 (-23.264 0.986) 70 (-20.479 -2.943) 71 (-16.857 1.076) 72 (-9.699 2.871) 73 (-8.801 3.252) 74 (-9.409 -1.257) 75 (-7.759 -2.888) 76 (-11.546 1.405) 77 (-7.237 -0.313) 78 (-6.943 0.165) 79 (-10.696 2.223) 80 (-7.532 -1.298) 81 (-10.658 -2.844) 82 (-13.901 0.028) 83 (-7.855 3.520) 84 (-11.812 -0.585) 85 (-9.400 0.486) 86 (-7.346 2.615) 87 (-13.604 -3.668) 88 (-14.418 -2.585) 89 (-10.970 -3.635) 90 (-13.608 -0.925) 91 (-12.052 3.625) 92 (-7.374 0.591) 93 (-13.503 -3.004) 94 (-8.218 -0.743) 95 (-9.650 1.802) 96 (-8.792 0.237) 97 (-9.177 -0.694) 98 (-14.027 3.578) 99 (-13.219 -0.024) 100 (-8.297 2.997) 101 (-5.575 -0.865) 102 (-5.640 -1.928) 103 (-12.986 -3.697) 104 (-7.703 1.116) 105 (-11.992 -1.109) 106 (-12.171 0.052) 107 (-5.611 2.080) 108 (-9.917 -0.887) 109 (-10.385 3.161) 110 (-8.349 -1.891) 111 (-12.694 -1.130) 112 (-9.877 -2.608) 113 (-13.448 3.182) 114 (-12.656 -1.813) 115 (-6.469 0.618) 116 (-8.088 -3.916) 117 (-9.060 1.121) 118 (-9.899 0.990) 119 (-8.513 0.810) 120 (-7.065 -1.913) 121 (-5.430 2.758) 122 (-6.130 -2.410) 123 (-13.505 -2.239) 124 (-11.174 3.113) 125 (-8.768 3.868) 126 (-7.859 -2.217) 127 (-6.269 -1.432) 128 (-8.867 -3.070) 129 (-6.593 3.841) 130 (-7.261 4.041) 131 (-8.134 1.642) 132 (-8.839 -1.640) 133 (-11.367 0.017) 134 (-6.066 -0.448) 135 (-10.824 -0.239) 136 (-5.524 -3.543) 137 (-7.958 0.549) 138 (-14.239 -3.379) 139 (-6.203 2.650) 140 (-10.661 0.446) 141 (-8.715 -0.327) 142 (-3.628 1.923) 143 (2.876 1.618) 144 (-1.136 -1.017) 145 (-2.177 -2.982) 146 (0.132 1.010) 147 (-3.349 -3.286) 148 (2.980 -0.446) 149 (1.139 -1.224) 150 (0.169 -2.404) 151 (-4.150 -3.249) 152 (-0.746 1.047) 153 (-2.840 -0.708) 154 (-3.505 -0.489) 155 (1.124 -1.728) 156 (-0.740 -3.785) 157 (-1.067 0.238) 158 (3.252 -3.576) 159 (3.083 2.913) 160 (-0.580 1.595) 161 (4.353 -3.665) 162 (-1.563 2.509) 163 (2.227 3.677) 164 (2.568 -4.204) 165 (1.620 1.592) 166 (1.291 -0.620) 167 (-3.266 3.046) 168 (-1.732 -2.193) 169 (0.323 -1.688) 170 (3.856 -1.929) 171 (2.798 0.599) 172 (-0.757 -2.334) 173 (-2.502 -4.120) 174 (-0.029 3.669) 175 (3.322 -1.288) 176 (0.926 0.860) 177 (2.231 1.258) 178 (-0.874 2.246) 179 (4.111 1.964) 180 (-2.826 -3.022) 181 (-1.154 -1.922) 182 (-1.815 -1.164) 183 (0.802 -2.308) 184 (-2.705 2.417) 185 (-2.835 -1.727) 186 (3.792 -4.031) 187 (-2.393 2.896) 188 (3.498 2.038) 189 (-1.066 -2.983) 190 (-2.890 1.862) 191 (-0.429 0.451) 192 (4.474 1.338) 193 (1.734 3.202) 194 (4.240 3.095) 195 (3.307 -2.498) 196 (-2.603 3.894) 197 (-1.395 -3.429) 198 (2.154 -2.653) 199 (0.770 0.143) 200 (-1.763 3.984) 201 (2.241 2.160) 202 (2.675 -1.056) 203 (0.092 0.043) 204 (2.928 -1.815) 205 (-0.618 -1.160) 206 (-2.333 3.133) 207 (-1.551 3.161) 208 (-0.150 -0.804) 209 (2.797 3.507) 210 (-0.631 -0.292) 211 (2.751 2.381) 212 (8.360 0.287) 213 (8.923 -3.493) 214 (9.698 -0.753) 215 (6.524 -3.359) 216 (11.769 2.331) 217 (12.490 -3.056) 218 (13.408 3.882) 219 (7.672 -1.231) 220 (8.712 0.895) 221 (9.569 -3.167) 222 (9.705 -1.452) 223 (10.000 -2.694) 224 (7.671 -3.288) 225 (11.871 -2.448) 226 (9.298 2.991) 227 (7.229 -0.778) 228 (10.851 1.542) 229 (9.547 -2.516) 230 (12.342 2.765) 231 (13.559 3.213) 232 (11.813 -3.179) 233 (7.436 2.436) 234 (7.167 -1.435) 235 (10.773 -2.712) 236 (10.460 -1.588) 237 (9.972 0.052) 238 (10.285 -3.363) 239 (8.471 -0.640) 240 (7.834 3.602) 241 (11.168 -3.893) 242 (11.662 -1.607) 243 (13.833 -1.763) 244 (12.349 -1.455) 245 (6.494 -1.513) 246 (12.618 3.477) 247 (11.448 0.975) 248 (14.101 0.043) 249 (6.087 3.032) 250 (5.844 0.690) 251 (11.419 0.334) 252 (6.832 2.737) 253 (6.891 3.481) 254 (12.677 -0.308) 255 (5.765 1.650) 256 (12.234 1.245) 257 (10.449 1.682) 258 (12.344 0.329) 259 (8.326 -1.270) 260 (5.511 3.291) 261 (7.651 0.547) 262 (8.643 2.758) 263 (10.410 2.483) 264 (11.235 1.831) 265 (5.695 -3.518) 266 (10.892 -3.464) 267 (6.019 -0.155) 268 (6.393 1.334) 269 (11.090 -1.039) 270 (5.324 -1.671) 271 (7.252 1.089) 272 (13.199 -1.946) 273 (6.100 -4.091) 274 (8.899 -2.251) 275 (10.875 -2.324) 276 (5.688 2.478) 277 (9.680 1.869) 278 (6.783 -3.864) 279 (6.213 -2.832) 280 (7.640 3.029) 281 (9.363 0.962) 282 (17.220 2.412) 283 (17.386 3.514) 284 (17.882 2.479) 285 (18.307 -0.223) 286 (23.322 -2.275) 287 (15.991 1.453) 288 (22.959 2.765) 289 (20.698 -3.363) 290 (19.586 3.242) 291 (15.455 2.696) 292 (16.505 1.886) 293 (22.574 -1.975) 294 (19.658 1.274) 295 (17.250 -0.265) 296 (17.080 1.543) 297 (15.908 3.267) 298 (16.805 -0.937) 299 (18.230 -1.883) 300 (16.585 -2.296) 301 (22.359 0.751) 302 (21.286 -3.031) 303 (22.507 1.540) 304 (20.170 -1.934) 305 (19.044 2.726) 306 (18.512 0.553) 307 (23.538 0.178) 308 (19.718 2.285) 309 (22.387 3.468) 310 (15.591 -1.117) 311 (23.145 -1.637) 312 (21.243 -1.072) 313 (20.459 1.970) 314 (15.589 -1.772) 315 (22.312 -2.481) 316 (18.697 -3.492) 317 (21.279 0.144) 318 (19.059 -0.826) 319 (19.149 0.730) 320 (20.990 2.386) 321 (18.959 -0.125) 322 (23.744 -2.794) 323 (18.441 3.915) 324 (16.113 2.466) 325 (22.530 -3.821) 326 (15.959 -3.941) 327 (19.499 -2.014) 328 (17.583 -2.945) 329 (16.609 0.081) 330 (17.264 -1.445) 331 (23.709 1.715) 332 (22.892 -2.792) 333 (23.487 -1.234) 334 (22.584 -0.086) 335 (21.872 2.970) 336 (20.452 -1.485) 337 (21.439 3.662) 338 (23.154 1.307) 339 (23.487 2.267) 340 (19.001 -1.551) 341 (16.531 1.089) 342 (17.894 0.235) 343 (21.080 -1.667) 344 (15.269 -2.264) 345 (20.810 0.669) 346 (19.345 0.122) 347 (17.054 -3.954) 348 (17.455 -3.463) 349 (20.139 -1.014) 350 (22.315 -1.286) 351 (23.444 -4.152)", 
        "clock": "0.8"
    }, 
    {
        "report": "", 
        "odom": "pose -20.198 -0.012 269.963 -1.000 -0.001 0.000", 
        "crowd": "id pose 2 (-16.534 0.476) 3 (-17.674 1.815) 4 (-18.518 -2.188) 5 (-15.792 0.376) 6 (-23.642 4.104) 7 (-15.373 -0.401) 8 (-20.400 1.351) 9 (-18.916 -3.057) 10 (-21.421 0.541) 11 (-17.097 2.162) 12 (-17.924 1.136) 13 (-21.030 1.730) 14 (-16.752 -1.092) 15 (-22.037 0.446) 16 (-19.903 2.394) 17 (-18.594 0.039) 18 (-17.966 3.613) 19 (-19.106 -3.724) 20 (-15.545 3.083) 21 (-22.429 3.564) 22 (-20.997 0.042) 23 (-19.626 -2.279) 24 (-24.352 -2.435) 25 (-15.789 -0.946) 26 (-16.285 -0.741) 27 (-19.136 1.460) 28 (-21.858 2.368) 29 (-22.790 -0.563) 30 (-22.251 -2.146) 31 (-18.520 1.752) 32 (-16.964 -2.995) 33 (-23.683 -0.565) 34 (-16.278 -0.185) 35 (-23.115 2.439) 36 (-16.115 3.662) 37 (-23.533 0.470) 38 (-23.843 2.247) 39 (-22.984 -1.943) 40 (-22.522 -3.177) 41 (-15.431 -1.750) 42 (-20.904 -0.656) 43 (-15.759 -2.358) 44 (-24.156 3.917) 45 (-18.913 0.622) 46 (-24.452 3.299) 47 (-19.843 1.248) 48 (-22.453 1.237) 49 (-22.143 -0.417) 50 (-20.996 0.933) 51 (-24.166 0.301) 52 (-20.256 -3.560) 53 (-21.289 2.768) 54 (-20.330 -1.143) 55 (-23.147 -2.919) 56 (-23.747 -3.150) 57 (-17.273 1.393) 58 (-15.939 2.484) 59 (-21.981 -3.659) 60 (-17.392 -3.526) 61 (-20.727 -2.288) 62 (-16.387 1.782) 63 (-18.708 -4.185) 64 (-16.486 2.795) 65 (-15.463 -3.060) 66 (-19.703 -1.623) 67 (-15.771 1.522) 68 (-19.035 -2.411) 69 (-23.264 0.986) 70 (-20.479 -2.943) 71 (-16.857 1.076) 72 (-9.699 2.871) 73 (-8.801 3.252) 74 (-9.409 -1.257) 75 (-7.759 -2.888) 76 (-11.546 1.405) 77 (-7.237 -0.313) 78 (-6.943 0.165) 79 (-10.696 2.223) 80 (-7.532 -1.298) 81 (-10.658 -2.844) 82 (-13.901 0.028) 83 (-7.855 3.520) 84 (-11.812 -0.585) 85 (-9.400 0.486) 86 (-7.346 2.615) 87 (-13.604 -3.668) 88 (-14.418 -2.585) 89 (-10.970 -3.635) 90 (-13.608 -0.925) 91 (-12.052 3.625) 92 (-7.374 0.591) 93 (-13.503 -3.004) 94 (-8.218 -0.743) 95 (-9.650 1.802) 96 (-8.792 0.237) 97 (-9.177 -0.694) 98 (-14.027 3.578) 99 (-13.219 -0.024) 100 (-8.297 2.997) 101 (-5.575 -0.865) 102 (-5.640 -1.928) 103 (-12.986 -3.697) 104 (-7.703 1.116) 105 (-11.992 -1.109) 106 (-12.171 0.052) 107 (-5.611 2.080) 108 (-9.917 -0.887) 109 (-10.385 3.161) 110 (-8.349 -1.891) 111 (-12.694 -1.130) 112 (-9.877 -2.608) 113 (-13.448 3.182) 114 (-12.656 -1.813) 115 (-6.469 0.618) 116 (-8.088 -3.916) 117 (-9.060 1.121) 118 (-9.899 0.990) 119 (-8.513 0.810) 120 (-7.065 -1.913) 121 (-5.430 2.758) 122 (-6.130 -2.410) 123 (-13.505 -2.239) 124 (-11.174 3.113) 125 (-8.768 3.868) 126 (-7.859 -2.217) 127 (-6.269 -1.432) 128 (-8.867 -3.070) 129 (-6.593 3.841) 130 (-7.261 4.041) 131 (-8.134 1.642) 132 (-8.839 -1.640) 133 (-11.367 0.017) 134 (-6.066 -0.448) 135 (-10.824 -0.239) 136 (-5.524 -3.543) 137 (-7.958 0.549) 138 (-14.239 -3.379) 139 (-6.203 2.650) 140 (-10.661 0.446) 141 (-8.715 -0.327) 142 (-3.628 1.923) 143 (2.876 1.618) 144 (-1.136 -1.017) 145 (-2.177 -2.982) 146 (0.132 1.010) 147 (-3.349 -3.286) 148 (2.980 -0.446) 149 (1.139 -1.224) 150 (0.169 -2.404) 151 (-4.150 -3.249) 152 (-0.746 1.047) 153 (-2.840 -0.708) 154 (-3.505 -0.489) 155 (1.124 -1.728) 156 (-0.740 -3.785) 157 (-1.067 0.238) 158 (3.252 -3.576) 159 (3.083 2.913) 160 (-0.580 1.595) 161 (4.353 -3.665) 162 (-1.563 2.509) 163 (2.227 3.677) 164 (2.568 -4.204) 165 (1.620 1.592) 166 (1.291 -0.620) 167 (-3.266 3.046) 168 (-1.732 -2.193) 169 (0.323 -1.688) 170 (3.856 -1.929) 171 (2.798 0.599) 172 (-0.757 -2.334) 173 (-2.502 -4.120) 174 (-0.029 3.669) 175 (3.322 -1.288) 176 (0.926 0.860) 177 (2.231 1.258) 178 (-0.874 2.246) 179 (4.111 1.964) 180 (-2.826 -3.022) 181 (-1.154 -1.922) 182 (-1.815 -1.164) 183 (0.802 -2.308) 184 (-2.705 2.417) 185 (-2.835 -1.727) 186 (3.792 -4.031) 187 (-2.393 2.896) 188 (3.498 2.038) 189 (-1.066 -2.983) 190 (-2.890 1.862) 191 (-0.429 0.451) 192 (4.474 1.338) 193 (1.734 3.202) 194 (4.240 3.095) 195 (3.307 -2.498) 196 (-2.603 3.894) 197 (-1.395 -3.429) 198 (2.154 -2.653) 199 (0.770 0.143) 200 (-1.763 3.984) 201 (2.241 2.160) 202 (2.675 -1.056) 203 (0.092 0.043) 204 (2.928 -1.815) 205 (-0.618 -1.160) 206 (-2.333 3.133) 207 (-1.551 3.161) 208 (-0.150 -0.804) 209 (2.797 3.507) 210 (-0.631 -0.292) 211 (2.751 2.381) 212 (8.360 0.287) 213 (8.923 -3.493) 214 (9.698 -0.753) 215 (6.524 -3.359) 216 (11.769 2.331) 217 (12.490 -3.056) 218 (13.408 3.882) 219 (7.672 -1.231) 220 (8.712 0.895) 221 (9.569 -3.167) 222 (9.705 -1.452) 223 (10.000 -2.694) 224 (7.671 -3.288) 225 (11.871 -2.448) 226 (9.298 2.991) 227 (7.229 -0.778) 228 (10.851 1.542) 229 (9.547 -2.516) 230 (12.342 2.765) 231 (13.559 3.213) 232 (11.813 -3.179) 233 (7.436 2.436) 234 (7.167 -1.435) 235 (10.773 -2.712) 236 (10.460 -1.588) 237 (9.972 0.052) 238 (10.285 -3.363) 239 (8.471 -0.640) 240 (7.834 3.602) 241 (11.168 -3.893) 242 (11.662 -1.607) 243 (13.833 -1.763) 244 (12.349 -1.455) 245 (6.494 -1.513) 246 (12.618 3.477) 247 (11.448 0.975) 248 (14.101 0.043) 249 (6.087 3.032) 250 (5.844 0.690) 251 (11.419 0.334) 252 (6.832 2.737) 253 (6.891 3.481) 254 (12.677 -0.308) 255 (5.765 1.650) 256 (12.234 1.245) 257 (10.449 1.682) 258 (12.344 0.329) 259 (8.326 -1.270) 260 (5.511 3.291) 261 (7.651 0.547) 262 (8.643 2.758) 263 (10.410 2.483) 264 (11.235 1.831) 265 (5.695 -3.518) 266 (10.892 -3.464) 267 (6.019 -0.155) 268 (6.393 1.334) 269 (11.090 -1.039) 270 (5.324 -1.671) 271 (7.252 1.089) 272 (13.199 -1.946) 273 (6.100 -4.091) 274 (8.899 -2.251) 275 (10.875 -2.324) 276 (5.688 2.478) 277 (9.680 1.869) 278 (6.783 -3.864) 279 (6.213 -2.832) 280 (7.640 3.029) 281 (9.363 0.962) 282 (17.220 2.412) 283 (17.386 3.514) 284 (17.882 2.479) 285 (18.307 -0.223) 286 (23.322 -2.275) 287 (15.991 1.453) 288 (22.959 2.765) 289 (20.698 -3.363) 290 (19.586 3.242) 291 (15.455 2.696) 292 (16.505 1.886) 293 (22.574 -1.975) 294 (19.658 1.274) 295 (17.250 -0.265) 296 (17.080 1.543) 297 (15.908 3.267) 298 (16.805 -0.937) 299 (18.230 -1.883) 300 (16.585 -2.296) 301 (22.359 0.751) 302 (21.286 -3.031) 303 (22.507 1.540) 304 (20.170 -1.934) 305 (19.044 2.726) 306 (18.512 0.553) 307 (23.538 0.178) 308 (19.718 2.285) 309 (22.387 3.468) 310 (15.591 -1.117) 311 (23.145 -1.637) 312 (21.243 -1.072) 313 (20.459 1.970) 314 (15.589 -1.772) 315 (22.312 -2.481) 316 (18.697 -3.492) 317 (21.279 0.144) 318 (19.059 -0.826) 319 (19.149 0.730) 320 (20.990 2.386) 321 (18.959 -0.125) 322 (23.744 -2.794) 323 (18.441 3.915) 324 (16.113 2.466) 325 (22.530 -3.821) 326 (15.959 -3.941) 327 (19.499 -2.014) 328 (17.583 -2.945) 329 (16.609 0.081) 330 (17.264 -1.445) 331 (23.709 1.715) 332 (22.892 -2.792) 333 (23.487 -1.234) 334 (22.584 -0.086) 335 (21.872 2.970) 336 (20.452 -1.485) 337 (21.439 3.662) 338 (23.154 1.307) 339 (23.487 2.267) 340 (19.001 -1.551) 341 (16.531 1.089) 342 (17.894 0.235) 343 (21.080 -1.667) 344 (15.269 -2.264) 345 (20.810 0.669) 346 (19.345 0.122) 347 (17.054 -3.954) 348 (17.455 -3.463) 349 (20.139 -1.014) 350 (22.315 -1.286) 351 (23.444 -4.152)", 
        "clock": "0.9"
    }, 
    {
        "report": "", 
        "odom": "pose -20.198 -0.012 269.963 -1.000 -0.001 0.000", 
        "crowd": "id pose 2 (-16.534 0.476) 3 (-17.674 1.815) 4 (-18.518 -2.188) 5 (-15.792 0.376) 6 (-23.642 4.104) 7 (-15.373 -0.401) 8 (-20.400 1.351) 9 (-18.916 -3.057) 10 (-21.421 0.541) 11 (-17.097 2.162) 12 (-17.924 1.136) 13 (-21.030 1.730) 14 (-16.752 -1.092) 15 (-22.037 0.446) 16 (-19.903 2.394) 17 (-18.594 0.039) 18 (-17.966 3.613) 19 (-19.106 -3.724) 20 (-15.545 3.083) 21 (-22.429 3.564) 22 (-20.997 0.042) 23 (-19.626 -2.279) 24 (-24.352 -2.435) 25 (-15.789 -0.946) 26 (-16.285 -0.741) 27 (-19.136 1.460) 28 (-21.858 2.368) 29 (-22.790 -0.563) 30 (-22.251 -2.146) 31 (-18.520 1.752) 32 (-16.964 -2.995) 33 (-23.683 -0.565) 34 (-16.278 -0.185) 35 (-23.115 2.439) 36 (-16.115 3.662) 37 (-23.533 0.470) 38 (-23.843 2.247) 39 (-22.984 -1.943) 40 (-22.522 -3.177) 41 (-15.431 -1.750) 42 (-20.904 -0.656) 43 (-15.759 -2.358) 44 (-24.156 3.917) 45 (-18.913 0.622) 46 (-24.452 3.299) 47 (-19.843 1.248) 48 (-22.453 1.237) 49 (-22.143 -0.417) 50 (-20.996 0.933) 51 (-24.166 0.301) 52 (-20.256 -3.560) 53 (-21.289 2.768) 54 (-20.330 -1.143) 55 (-23.147 -2.919) 56 (-23.747 -3.150) 57 (-17.273 1.393) 58 (-15.939 2.484) 59 (-21.981 -3.659) 60 (-17.392 -3.526) 61 (-20.727 -2.288) 62 (-16.387 1.782) 63 (-18.708 -4.185) 64 (-16.486 2.795) 65 (-15.463 -3.060) 66 (-19.703 -1.623) 67 (-15.771 1.522) 68 (-19.035 -2.411) 69 (-23.264 0.986) 70 (-20.479 -2.943) 71 (-16.857 1.076) 72 (-9.699 2.871) 73 (-8.801 3.252) 74 (-9.409 -1.257) 75 (-7.759 -2.888) 76 (-11.546 1.405) 77 (-7.237 -0.313) 78 (-6.943 0.165) 79 (-10.696 2.223) 80 (-7.532 -1.298) 81 (-10.658 -2.844) 82 (-13.901 0.028) 83 (-7.855 3.520) 84 (-11.812 -0.585) 85 (-9.400 0.486) 86 (-7.346 2.615) 87 (-13.604 -3.668) 88 (-14.418 -2.585) 89 (-10.970 -3.635) 90 (-13.608 -0.925) 91 (-12.052 3.625) 92 (-7.374 0.591) 93 (-13.503 -3.004) 94 (-8.218 -0.743) 95 (-9.650 1.802) 96 (-8.792 0.237) 97 (-9.177 -0.694) 98 (-14.027 3.578) 99 (-13.219 -0.024) 100 (-8.297 2.997) 101 (-5.575 -0.865) 102 (-5.640 -1.928) 103 (-12.986 -3.697) 104 (-7.703 1.116) 105 (-11.992 -1.109) 106 (-12.171 0.052) 107 (-5.611 2.080) 108 (-9.917 -0.887) 109 (-10.385 3.161) 110 (-8.349 -1.891) 111 (-12.694 -1.130) 112 (-9.877 -2.608) 113 (-13.448 3.182) 114 (-12.656 -1.813) 115 (-6.469 0.618) 116 (-8.088 -3.916) 117 (-9.060 1.121) 118 (-9.899 0.990) 119 (-8.513 0.810) 120 (-7.065 -1.913) 121 (-5.430 2.758) 122 (-6.130 -2.410) 123 (-13.505 -2.239) 124 (-11.174 3.113) 125 (-8.768 3.868) 126 (-7.859 -2.217) 127 (-6.269 -1.432) 128 (-8.867 -3.070) 129 (-6.593 3.841) 130 (-7.261 4.041) 131 (-8.134 1.642) 132 (-8.839 -1.640) 133 (-11.367 0.017) 134 (-6.066 -0.448) 135 (-10.824 -0.239) 136 (-5.524 -3.543) 137 (-7.958 0.549) 138 (-14.239 -3.379) 139 (-6.203 2.650) 140 (-10.661 0.446) 141 (-8.715 -0.327) 142 (-3.628 1.923) 143 (2.876 1.618) 144 (-1.136 -1.017) 145 (-2.177 -2.982) 146 (0.132 1.010) 147 (-3.349 -3.286) 148 (2.980 -0.446) 149 (1.139 -1.224) 150 (0.169 -2.404) 151 (-4.150 -3.249) 152 (-0.746 1.047) 153 (-2.840 -0.708) 154 (-3.505 -0.489) 155 (1.124 -1.728) 156 (-0.740 -3.785) 157 (-1.067 0.238) 158 (3.252 -3.576) 159 (3.083 2.913) 160 (-0.580 1.595) 161 (4.353 -3.665) 162 (-1.563 2.509) 163 (2.227 3.677) 164 (2.568 -4.204) 165 (1.620 1.592) 166 (1.291 -0.620) 167 (-3.266 3.046) 168 (-1.732 -2.193) 169 (0.323 -1.688) 170 (3.856 -1.929) 171 (2.798 0.599) 172 (-0.757 -2.334) 173 (-2.502 -4.120) 174 (-0.029 3.669) 175 (3.322 -1.288) 176 (0.926 0.860) 177 (2.231 1.258) 178 (-0.874 2.246) 179 (4.111 1.964) 180 (-2.826 -3.022) 181 (-1.154 -1.922) 182 (-1.815 -1.164) 183 (0.802 -2.308) 184 (-2.705 2.417) 185 (-2.835 -1.727) 186 (3.792 -4.031) 187 (-2.393 2.896) 188 (3.498 2.038) 189 (-1.066 -2.983) 190 (-2.890 1.862) 191 (-0.429 0.451) 192 (4.474 1.338) 193 (1.734 3.202) 194 (4.240 3.095) 195 (3.307 -2.498) 196 (-2.603 3.894) 197 (-1.395 -3.429) 198 (2.154 -2.653) 199 (0.770 0.143) 200 (-1.763 3.984) 201 (2.241 2.160) 202 (2.675 -1.056) 203 (0.092 0.043) 204 (2.928 -1.815) 205 (-0.618 -1.160) 206 (-2.333 3.133) 207 (-1.551 3.161) 208 (-0.150 -0.804) 209 (2.797 3.507) 210 (-0.631 -0.292) 211 (2.751 2.381) 212 (8.360 0.287) 213 (8.923 -3.493) 214 (9.698 -0.753) 215 (6.524 -3.359) 216 (11.769 2.331) 217 (12.490 -3.056) 218 (13.408 3.882) 219 (7.672 -1.231) 220 (8.712 0.895) 221 (9.569 -3.167) 222 (9.705 -1.452) 223 (10.000 -2.694) 224 (7.671 -3.288) 225 (11.871 -2.448) 226 (9.298 2.991) 227 (7.229 -0.778) 228 (10.851 1.542) 229 (9.547 -2.516) 230 (12.342 2.765) 231 (13.559 3.213) 232 (11.813 -3.179) 233 (7.436 2.436) 234 (7.167 -1.435) 235 (10.773 -2.712) 236 (10.460 -1.588) 237 (9.972 0.052) 238 (10.285 -3.363) 239 (8.471 -0.640) 240 (7.834 3.602) 241 (11.168 -3.893) 242 (11.662 -1.607) 243 (13.833 -1.763) 244 (12.349 -1.455) 245 (6.494 -1.513) 246 (12.618 3.477) 247 (11.448 0.975) 248 (14.101 0.043) 249 (6.087 3.032) 250 (5.844 0.690) 251 (11.419 0.334) 252 (6.832 2.737) 253 (6.891 3.481) 254 (12.677 -0.308) 255 (5.765 1.650) 256 (12.234 1.245) 257 (10.449 1.682) 258 (12.344 0.329) 259 (8.326 -1.270) 260 (5.511 3.291) 261 (7.651 0.547) 262 (8.643 2.758) 263 (10.410 2.483) 264 (11.235 1.831) 265 (5.695 -3.518) 266 (10.892 -3.464) 267 (6.019 -0.155) 268 (6.393 1.334) 269 (11.090 -1.039) 270 (5.324 -1.671) 271 (7.252 1.089) 272 (13.199 -1.946) 273 (6.100 -4.091) 274 (8.899 -2.251) 275 (10.875 -2.324) 276 (5.688 2.478) 277 (9.680 1.869) 278 (6.783 -3.864) 279 (6.213 -2.832) 280 (7.640 3.029) 281 (9.363 0.962) 282 (17.220 2.412) 283 (17.386 3.514) 284 (17.882 2.479) 285 (18.307 -0.223) 286 (23.322 -2.275) 287 (15.991 1.453) 288 (22.959 2.765) 289 (20.698 -3.363) 290 (19.586 3.242) 291 (15.455 2.696) 292 (16.505 1.886) 293 (22.574 -1.975) 294 (19.658 1.274) 295 (17.250 -0.265) 296 (17.080 1.543) 297 (15.908 3.267) 298 (16.805 -0.937) 299 (18.230 -1.883) 300 (16.585 -2.296) 301 (22.359 0.751) 302 (21.286 -3.031) 303 (22.507 1.540) 304 (20.170 -1.934) 305 (19.044 2.726) 306 (18.512 0.553) 307 (23.538 0.178) 308 (19.718 2.285) 309 (22.387 3.468) 310 (15.591 -1.117) 311 (23.145 -1.637) 312 (21.243 -1.072) 313 (20.459 1.970) 314 (15.589 -1.772) 315 (22.312 -2.481) 316 (18.697 -3.492) 317 (21.279 0.144) 318 (19.059 -0.826) 319 (19.149 0.730) 320 (20.990 2.386) 321 (18.959 -0.125) 322 (23.744 -2.794) 323 (18.441 3.915) 324 (16.113 2.466) 325 (22.530 -3.821) 326 (15.959 -3.941) 327 (19.499 -2.014) 328 (17.583 -2.945) 329 (16.609 0.081) 330 (17.264 -1.445) 331 (23.709 1.715) 332 (22.892 -2.792) 333 (23.487 -1.234) 334 (22.584 -0.086) 335 (21.872 2.970) 336 (20.452 -1.485) 337 (21.439 3.662) 338 (23.154 1.307) 339 (23.487 2.267) 340 (19.001 -1.551) 341 (16.531 1.089) 342 (17.894 0.235) 343 (21.080 -1.667) 344 (15.269 -2.264) 345 (20.810 0.669) 346 (19.345 0.122) 347 (17.054 -3.954) 348 (17.455 -3.463) 349 (20.139 -1.014) 350 (22.315 -1.286) 351 (23.444 -4.152)", 
        "clock": "1.0"
    }
]